{
  "committee": "State Committee",
  "level": "State",
  "designation": "President",
  "name": "Sri Konidela Pawan Kalyan",
  "mobile": 9999999999,
  "district": "West Godavari",
  "assembly": "Bhimavaram",
  "imgUrl": "https://i.pinimg.com/originals/d5/d1/56/d5d156ce56d988bf0e88ebcfa9ba7669.jpg",
  "children": [
    {
      "name": "Vice President",
      "designation": "Vice President",
      "level": "state",
      "committee": "State Committee",
      "imgUrl":"https://cdn-icons-png.flaticon.com/512/166/166258.png ",
      "children": []
    },
    {
      "name": "General Secretary",
      "designation": "General Secretary",
      "level": "state",
      "committee": "State Committee",
      "imgUrl":"https://cdn-icons-png.flaticon.com/512/166/166258.png",
      "children": [
        {
          "committee": "State Committee",
          "level": "State",
          "designation": "General Secretary",
          "name": "Sri Konidela Nagendra Babu",
          "mobile": "9642454914",
          "district": "West Godavari",
          "assembly": "Narasapuram",
          "imgUrl": "https://rb.gy/5dd3es",
          "tags": [
            "Sri Konidela Nagendra Babu",
            "General Secretary",
            "State Committee",
            "State",
            "Narasapuram"
          ]
        },
        {
          "committee": "State Committee",
          "level": "State",
          "designation": "General Secretary",
          "name": "Sri T Shiva Shankar",
          "mobile": "7331163435",
          "district": "Visakhapatnam",
          "assembly": "Pendurthi",
          "imgUrl": "https://rb.gy/5dd3es",
          "tags": [
            "Sri T Shiva Shankar",
            "General Secretary",
            "State Committee",
            "State",
            "Pendurthi"
          ]
        },
        {
          "committee": "State Committee",
          "level": "State",
          "designation": "General Secretary",
          "name": "Sri Bolisetti Satyanarayana",
          "mobile": "9849152757",
          "district": "Visakhapatnam",
          "assembly": "Visakhapatnam East",
          "imgUrl": "https://rb.gy/5dd3es",
          "tags": [
            "Sri Bolisetti Satyanarayana",
            "General Secretary",
            "State Committee",
            "State",
            "Visakhapatnam East"
          ]
        },
        {
          "committee": "State Committee",
          "level": "State",
          "designation": "General Secretary",
          "name": "Smt Palavalasa Yasaswi",
          "mobile": "9000878567",
          "district": "Vizianagaram",
          "assembly": "Vizianagaram",
          "imgUrl": "https://rb.gy/5dd3es",
          "tags": [
            "Smt Palavalasa Yasaswi",
            "General Secretary",
            "State Committee",
            "State",
            "Vizianagaram"
          ]
        },
        {
          "committee": "State Committee",
          "level": "State",
          "designation": "General Secretary",
          "name": "Sri Bonaboyina Srinivas Yadav",
          "mobile": "9848575768",
          "district": "Guntur",
          "assembly": "Guntur",
          "imgUrl": "https://rb.gy/5dd3es",
          "tags": [
            "Sri Bonaboyina Srinivas Yadav",
            "General Secretary",
            "State Committee",
            "State",
            "Guntur"
          ]
        },
        {
          "committee": "State Committee",
          "level": "State",
          "designation": "General Secretary",
          "name": "Sri Pedapudi Vijay Kumar",
          "mobile": "9676518747",
          "district": "Prakasam",
          "assembly": "Parchur",
          "imgUrl": "https://rb.gy/5dd3es",
          "tags": [
            "Sri Pedapudi Vijay Kumar",
            "General Secretary",
            "State Committee",
            "State",
            "Parchur"
          ]
        },
        {
          "committee": "State Committee",
          "level": "State",
          "designation": "General Secretary",
          "name": "Sri Chilakam Madhusudan Reddy",
          "mobile": "9618091305",
          "district": "Anantapur",
          "assembly": "Dharmavaram",
          "imgUrl": "https://rb.gy/5dd3es",
          "tags": [
            "Sri Chilakam Madhusudan Reddy",
            "General Secretary",
            "State Committee",
            "State",
            "Dharmavaram"
          ]
        },
        {
          "name": "Secretary",
          "designation": "Secretary",
          "level": "state",
          "committee": "State Committee",
          "imgUrl":"https://cdn-icons-png.flaticon.com/512/166/166258.png ",
          "children": [
            {
              "committee": "State Committee",
              "level": "State",
              "designation": "Secretary",
              "name": "Sri Pisini Chandra Mohan",
              "mobile": "9493931101",
              "district": "Vizianagaram",
              "assembly": "Vizianagaram",
              "imgUrl": "https://rb.gy/5dd3es",
              "tags": [
                "Sri Pisini Chandra Mohan",
                "Secretary",
                "State Committee",
                "State",
                "Vizianagaram"
              ]
            },
            {
              "committee": "State Committee",
              "level": "State",
              "designation": "Secretary",
              "name": "Sri Gadasala Appa Rao",
              "mobile": "9493792495",
              "district": "Visakhapatnam",
              "assembly": "Gajuwaka",
              "imgUrl": "https://rb.gy/5dd3es",
              "tags": [
                "Sri Gadasala Appa Rao",
                "Secretary",
                "State Committee",
                "State",
                "Gajuwaka"
              ]
            },
            {
              "committee": "State Committee",
              "level": "State",
              "designation": "Secretary",
              "name": "Sri Bodapati Sivadath",
              "mobile": "9959551922",
              "district": "Visakhapatnam",
              "assembly": "Payakaraopeta",
              "imgUrl": "https://rb.gy/5dd3es",
              "tags": [
                "Sri Bodapati Sivadath",
                "Secretary",
                "State Committee",
                "State",
                "Payakaraopeta"
              ]
            },
            {
              "committee": "State Committee",
              "level": "State",
              "designation": "Secretary",
              "name": "Smt Anga Durga Prasanthi",
              "mobile": "7093316226",
              "district": "Visakhapatnam",
              "assembly": "Visakhapatnam West",
              "imgUrl": "https://rb.gy/5dd3es",
              "tags": [
                "Smt Anga Durga Prasanthi",
                "Secretary",
                "State Committee",
                "State",
                "Visakhapatnam West"
              ]
            },
            {
              "committee": "State Committee",
              "level": "State",
              "designation": "Secretary",
              "name": "Smt Ganta Swaroopa",
              "mobile": "9357677777",
              "district": "East Godavari",
              "assembly": "Rajahmundry City",
              "imgUrl": "https://rb.gy/5dd3es",
              "tags": [
                "Smt Ganta Swaroopa",
                "Secretary",
                "State Committee",
                "State",
                "Rajahmundry City"
              ]
            },
            {
              "committee": "State Committee",
              "level": "State",
              "designation": "Secretary",
              "name": "Smt Muthyala Priya Sowjanya",
              "mobile": "9652533339",
              "district": "East Godavari",
              "assembly": "Rajahmundry City",
              "imgUrl": "https://rb.gy/5dd3es",
              "tags": [
                "Smt Muthyala Priya Sowjanya",
                "Secretary",
                "State Committee",
                "State",
                "Rajahmundry City"
              ]
            },
            {
              "committee": "State Committee",
              "level": "State",
              "designation": "Secretary",
              "name": "Smt Polasapalli Saroja",
              "mobile": "9505065555",
              "district": "East Godavari",
              "assembly": "Kakinada City",
              "imgUrl": "https://rb.gy/5dd3es",
              "tags": [
                "Smt Polasapalli Saroja",
                "Secretary",
                "State Committee",
                "State",
                "Kakinada City"
              ]
            },
            {
              "committee": "State Committee",
              "level": "State",
              "designation": "Secretary",
              "name": "Sri Sangisetty Ashok",
              "mobile": "9703235555",
              "district": "East Godavari",
              "assembly": "Kakinada City",
              "imgUrl": "https://rb.gy/5dd3es",
              "tags": [
                "Sri Sangisetty Ashok",
                "Secretary",
                "State Committee",
                "State",
                "Kakinada City"
              ]
            },
            {
              "committee": "State Committee",
              "level": "State",
              "designation": "Secretary",
              "name": "Sri Ratnam Ayyappa",
              "mobile": "9848148499",
              "district": "East Godavari",
              "assembly": "Rajahmundry Rural",
              "imgUrl": "https://rb.gy/5dd3es",
              "tags": [
                "Sri Ratnam Ayyappa",
                "Secretary",
                "State Committee",
                "State",
                "Rajahmundry Rural"
              ]
            },
            {
              "committee": "State Committee",
              "level": "State",
              "designation": "Secretary",
              "name": "Sri Geddam Maha Lakshmi Prasad",
              "mobile": "9963069399",
              "district": "East Godavari",
              "assembly": "Razole",
              "imgUrl": "https://rb.gy/5dd3es",
              "tags": [
                "Sri Geddam Maha Lakshmi Prasad",
                "Secretary",
                "State Committee",
                "State",
                "Razole"
              ]
            },
            {
              "committee": "State Committee",
              "level": "State",
              "designation": "Secretary",
              "name": "Sri B V S N Prasad",
              "mobile": "9866633378",
              "district": "West Godavari",
              "assembly": "Nidadavole",
              "imgUrl": "https://rb.gy/5dd3es",
              "tags": [
                "Sri B V S N Prasad",
                "Secretary",
                "State Committee",
                "State",
                "Nidadavole"
              ]
            },
            {
              "committee": "State Committee",
              "level": "State",
              "designation": "Secretary",
              "name": "Smt Gantasala Venkata Lakshmi",
              "mobile": "9493366748",
              "district": "West Godavari",
              "assembly": "Denduluru",
              "imgUrl": "https://rb.gy/5dd3es",
              "tags": [
                "Smt Gantasala Venkata Lakshmi",
                "Secretary",
                "State Committee",
                "State",
                "Denduluru"
              ]
            },
            {
              "committee": "State Committee",
              "level": "State",
              "designation": "Secretary",
              "name": "Sri Chaganti Murali Krishna",
              "mobile": "9436644444",
              "district": "West Godavari",
              "assembly": "Narasapuram",
              "imgUrl": "https://rb.gy/5dd3es",
              "tags": [
                "Sri Chaganti Murali Krishna",
                "Secretary",
                "State Committee",
                "State",
                "Narasapuram"
              ]
            },
            {
              "committee": "State Committee",
              "level": "State",
              "designation": "Secretary",
              "name": "Sri Ammisetty Vasu",
              "mobile": "9177232323",
              "district": "Krishna",
              "assembly": "Vijayawada Central",
              "imgUrl": "https://rb.gy/5dd3es",
              "tags": [
                "Sri Ammisetty Vasu",
                "Secretary",
                "State Committee",
                "State",
                "Vijayawada Central"
              ]
            },
            {
              "committee": "State Committee",
              "level": "State",
              "designation": "Secretary",
              "name": "Sri Mandali Rajesh",
              "mobile": "9912246789",
              "district": "Krishna",
              "assembly": "Avanigadda",
              "imgUrl": "https://rb.gy/5dd3es",
              "tags": [
                "Sri Mandali Rajesh",
                "Secretary",
                "State Committee",
                "State",
                "Avanigadda"
              ]
            },
            {
              "committee": "State Committee",
              "level": "State",
              "designation": "Secretary",
              "name": "Sri Sayyed Jilani",
              "mobile": "9177177775",
              "district": "Guntur",
              "assembly": "Narasaraopet",
              "imgUrl": "https://rb.gy/5dd3es",
              "tags": [
                "Sri Sayyed Jilani",
                "Secretary",
                "State Committee",
                "State",
                "Narasaraopet"
              ]
            },
            {
              "committee": "State Committee",
              "level": "State",
              "designation": "Secretary",
              "name": "Sri Vadranam Markandeya Babu",
              "mobile": "9848136675",
              "district": "Guntur",
              "assembly": "Guntur",
              "imgUrl": "https://rb.gy/5dd3es",
              "tags": [
                "Sri Vadranam Markandeya Babu",
                "Secretary",
                "State Committee",
                "State",
                "Guntur"
              ]
            },
            {
              "committee": "State Committee",
              "level": "State",
              "designation": "Secretary",
              "name": "Sri Betapudi Vijaya Sekhar",
              "mobile": "8985473438",
              "district": "Guntur",
              "assembly": "Mangalagiri",
              "imgUrl": "https://rb.gy/5dd3es",
              "tags": [
                "Sri Betapudi Vijaya Sekhar",
                "Secretary",
                "State Committee",
                "State",
                "Mangalagiri"
              ]
            },
            {
              "committee": "State Committee",
              "level": "State",
              "designation": "Secretary",
              "name": "Sri Nayub Kamaal",
              "mobile": "8897775577",
              "district": "Guntur",
              "assembly": "Narsaraopet",
              "imgUrl": "https://rb.gy/5dd3es",
              "tags": [
                "Sri Nayub Kamaal",
                "Secretary",
                "State Committee",
                "State",
                "Narsaraopet"
              ]
            },
            {
              "committee": "State Committee",
              "level": "State",
              "designation": "Secretary",
              "name": "Sri Amanchi Srinivasu (Swamulu)",
              "mobile": "9866455179",
              "district": "Prakasam",
              "assembly": "Chirala",
              "imgUrl": "https://rb.gy/5dd3es",
              "tags": [
                "Sri Amanchi Srinivasu (Swamulu)",
                "Secretary",
                "State Committee",
                "State",
                "Chirala"
              ]
            },
            {
              "committee": "State Committee",
              "level": "State",
              "designation": "Secretary",
              "name": "Sri Thathamsetty Nagendra",
              "mobile": "9949125139",
              "district": "Kadapa",
              "assembly": "Railway Kodur",
              "imgUrl": "https://rb.gy/5dd3es",
              "tags": [
                "Sri Thathamsetty Nagendra",
                "Secretary",
                "State Committee",
                "State",
                "Railway Kodur"
              ]
            },
            {
              "committee": "State Committee",
              "level": "State",
              "designation": "Secretary",
              "name": "Sri Sayyed Mukram Chand",
              "mobile": "7732008744",
              "district": "Kadapa",
              "assembly": "Rajampet",
              "imgUrl": "https://rb.gy/5dd3es",
              "tags": [
                "Sri Sayyed Mukram Chand",
                "Secretary",
                "State Committee",
                "State",
                "Rajampet"
              ]
            },
            {
              "committee": "State Committee",
              "level": "State",
              "designation": "Secretary",
              "name": "Smt Arani Kavitha",
              "mobile": "8919510327",
              "district": "Chittoor",
              "assembly": "Chittoor",
              "imgUrl": "https://rb.gy/5dd3es",
              "tags": [
                "Smt Arani Kavitha",
                "Secretary",
                "State Committee",
                "State",
                "Chittoor"
              ]
            },
            {
              "committee": "State Committee",
              "level": "State",
              "designation": "Secretary",
              "name": "Smt Akepati Subhashini",
              "mobile": "9000055331",
              "district": "Chittoor",
              "assembly": "Tirupathi",
              "imgUrl": "https://rb.gy/5dd3es",
              "tags": [
                "Smt Akepati Subhashini",
                "Secretary",
                "State Committee",
                "State",
                "Tirupathi"
              ]
            },
            {
              "name": "Joint Secretary",
              "designation": "Joint Secretary",
              "level": "state",
              "committee": "State Committee",
              "imgUrl":"https://cdn-icons-png.flaticon.com/512/166/166258.png ",
              "children": [
                {
                  "committee": "State Committee",
                  "level": "State",
                  "designation": "Joint Secretary",
                  "name": "Sri Tippana Duryodhana Reddy",
                  "mobile": "8919167641",
                  "district": "Srikakulam",
                  "assembly": "Icchapuram",
                  "imgUrl": "https://rb.gy/5dd3es",
                  "tags": [
                    "Sri Tippana Duryodhana Reddy",
                    "Joint Secretary",
                    "State Committee",
                    "State",
                    "Icchapuram"
                  ]
                },
                {
                  "committee": "State Committee",
                  "level": "State",
                  "designation": "Joint Secretary",
                  "name": "Sri Baipalli Eswara Rao",
                  "mobile": "8451886626",
                  "district": "Srikakulam",
                  "assembly": "Icchapuram",
                  "imgUrl": "https://rb.gy/5dd3es",
                  "tags": [
                    "Sri Baipalli Eswara Rao",
                    "Joint Secretary",
                    "State Committee",
                    "State",
                    "Icchapuram"
                  ]
                },
                {
                  "committee": "State Committee",
                  "level": "State",
                  "designation": "Joint Secretary",
                  "name": "Sri Dirisala Balaji",
                  "mobile": "9849712218",
                  "district": "East Godavari",
                  "assembly": "Razole",
                  "imgUrl": "https://rb.gy/5dd3es",
                  "tags": [
                    "Sri Dirisala Balaji",
                    "Joint Secretary",
                    "State Committee",
                    "State",
                    "Razole"
                  ]
                },
                {
                  "committee": "State Committee",
                  "level": "State",
                  "designation": "Joint Secretary",
                  "name": "Sri Tadi Mohan Kumar",
                  "mobile": "9912634444",
                  "district": "East Godavari",
                  "assembly": "Razole",
                  "imgUrl": "https://rb.gy/5dd3es",
                  "tags": [
                    "Sri Tadi Mohan Kumar",
                    "Joint Secretary",
                    "State Committee",
                    "State",
                    "Razole"
                  ]
                },
                {
                  "committee": "State Committee",
                  "level": "State",
                  "designation": "Joint Secretary",
                  "name": "Sri Jakkamsetty Balakrishna",
                  "mobile": "9440447953",
                  "district": "East Godavari",
                  "assembly": "Mummidivaram",
                  "imgUrl": "https://rb.gy/5dd3es",
                  "tags": [
                    "Sri Jakkamsetty Balakrishna",
                    "Joint Secretary",
                    "State Committee",
                    "State",
                    "Mummidivaram"
                  ]
                },
                {
                  "committee": "State Committee",
                  "level": "State",
                  "designation": "Joint Secretary",
                  "name": "Sri Taatikayala Veerababu",
                  "mobile": "9848452244",
                  "district": "East Godavari",
                  "assembly": "Kakinada Rural",
                  "imgUrl": "https://rb.gy/5dd3es",
                  "tags": [
                    "Sri Taatikayala Veerababu",
                    "Joint Secretary",
                    "State Committee",
                    "State",
                    "Kakinada Rural"
                  ]
                },
                {
                  "committee": "State Committee",
                  "level": "State",
                  "designation": "Joint Secretary",
                  "name": "Sri Vasireddy Sivaprasad",
                  "mobile": "8639236130",
                  "district": "East Godavari",
                  "assembly": "Kakinada City",
                  "imgUrl": "https://rb.gy/5dd3es",
                  "tags": [
                    "Sri Vasireddy Sivaprasad",
                    "Joint Secretary",
                    "State Committee",
                    "State",
                    "Kakinada City"
                  ]
                },
                {
                  "committee": "State Committee",
                  "level": "State",
                  "designation": "Joint Secretary",
                  "name": "Sri Bogireddy Gangadhar",
                  "mobile": "9000456861",
                  "district": "East Godavari",
                  "assembly": "Kakinada Rural",
                  "imgUrl": "https://rb.gy/5dd3es",
                  "tags": [
                    "Sri Bogireddy Gangadhar",
                    "Joint Secretary",
                    "State Committee",
                    "State",
                    "Kakinada Rural"
                  ]
                },
                {
                  "committee": "State Committee",
                  "level": "State",
                  "designation": "Joint Secretary",
                  "name": "Sri Medisetty Surya Kiran",
                  "mobile": "9866324848",
                  "district": "East Godavari",
                  "assembly": "Kathipudi",
                  "imgUrl": "https://rb.gy/5dd3es",
                  "tags": [
                    "Sri Medisetty Surya Kiran",
                    "Joint Secretary",
                    "State Committee",
                    "State",
                    "Kathipudi"
                  ]
                },
                {
                  "committee": "State Committee",
                  "level": "State",
                  "designation": "Joint Secretary",
                  "name": "Smt Karepalli Santhipriya",
                  "mobile": "9550139943",
                  "district": "West Godavari",
                  "assembly": "Bhimavaram",
                  "imgUrl": "https://rb.gy/5dd3es",
                  "tags": [
                    "Smt Karepalli Santhipriya",
                    "Joint Secretary",
                    "State Committee",
                    "State",
                    "Bhimavaram"
                  ]
                },
                {
                  "committee": "State Committee",
                  "level": "State",
                  "designation": "Joint Secretary",
                  "name": "Smt Battu Leela Kanaka Durga",
                  "mobile": "9177711769",
                  "district": "Krishna",
                  "assembly": "Kaikalur",
                  "imgUrl": "https://rb.gy/5dd3es",
                  "tags": [
                    "Smt Battu Leela Kanaka Durga",
                    "Joint Secretary",
                    "State Committee",
                    "State",
                    "Kaikalur"
                  ]
                },
                {
                  "committee": "State Committee",
                  "level": "State",
                  "designation": "Joint Secretary",
                  "name": "Smt Potireddy Anita",
                  "mobile": "9440023649",
                  "district": "Krishna",
                  "assembly": "Vijayawada East",
                  "imgUrl": "https://rb.gy/5dd3es",
                  "tags": [
                    "Smt Potireddy Anita",
                    "Joint Secretary",
                    "State Committee",
                    "State",
                    "Vijayawada East"
                  ]
                },
                {
                  "committee": "State Committee",
                  "level": "State",
                  "designation": "Joint Secretary",
                  "name": "Sri Yedlapalli Ram Sudheer",
                  "mobile": "9985562644",
                  "district": "Krishna",
                  "assembly": "Pedana",
                  "imgUrl": "https://rb.gy/5dd3es",
                  "tags": [
                    "Sri Yedlapalli Ram Sudheer",
                    "Joint Secretary",
                    "State Committee",
                    "State",
                    "Pedana"
                  ]
                },
                {
                  "committee": "State Committee",
                  "level": "State",
                  "designation": "Joint Secretary",
                  "name": "Sri Bandaru Ravikant",
                  "mobile": "8125468097",
                  "district": "Guntur",
                  "assembly": "Tenali",
                  "imgUrl": "https://rb.gy/5dd3es",
                  "tags": [
                    "Sri Bandaru Ravikant",
                    "Joint Secretary",
                    "State Committee",
                    "State",
                    "Tenali"
                  ]
                },
                {
                  "committee": "State Committee",
                  "level": "State",
                  "designation": "Joint Secretary",
                  "name": "Sri Chittaluru Sundara Rami Reddy",
                  "mobile": "9710020800",
                  "district": "Nellore",
                  "assembly": "Nellore",
                  "imgUrl": "https://rb.gy/5dd3es",
                  "tags": [
                    "Sri Chittaluru Sundara Rami Reddy",
                    "Joint Secretary",
                    "State Committee",
                    "State",
                    "Nellore"
                  ]
                },
                {
                  "committee": "State Committee",
                  "level": "State",
                  "designation": "Joint Secretary",
                  "name": "Sri Pathuru Narayana Swamy Mahesh",
                  "mobile": "9640102579",
                  "district": "Chittoor",
                  "assembly": "Madanapalle",
                  "imgUrl": "https://rb.gy/5dd3es",
                  "tags": [
                    "Sri Pathuru Narayana Swamy Mahesh",
                    "Joint Secretary",
                    "State Committee",
                    "State",
                    "Madanapalle"
                  ]
                }
              ]
            }
          ]
        }
      ]
    }
  ]
}
