[
  {
   "mandal_id": 1,
    "mandal_name": "Ichapuram",
    "constituency_id": 1,
    "district_id": 19,
    "state_id": 1
  },
  {
   "mandal_id": 4,
    "mandal_name": "Sompeta",
    "constituency_id": 1,
    "district_id": 19,
    "state_id": 1
  },
  {
   "mandal_id": 3,
    "mandal_name": "Kaviti",
    "constituency_id": 1,
    "district_id": 19,
    "state_id": 1
  },
  {
   "mandal_id": 2,
    "mandal_name": "Kanchili",
    "constituency_id": 1,
    "district_id": 19,
    "state_id": 1
  },
  {
   "mandal_id": 5,
    "mandal_name": "Mandasa",
    "constituency_id": 2,
    "district_id": 19,
    "state_id": 1
  },
  {
   "mandal_id": 7,
    "mandal_name": "VajrapuKothur",
    "constituency_id": 2,
    "district_id": 19,
    "state_id": 1
  },
  {
   "mandal_id": 6,
    "mandal_name": "Palasa",
    "constituency_id": 2,
    "district_id": 19,
    "state_id": 1
  },
  {
   "mandal_id": 9,
    "mandal_name": "Nandigam",
    "constituency_id": 3,
    "district_id": 19,
    "state_id": 1
  },
  {
   "mandal_id": 8,
    "mandal_name": "Kotabommaali",
    "constituency_id": 3,
    "district_id": 19,
    "state_id": 1
  },
  {
   "mandal_id": 11,
    "mandal_name": "Tekkali",
    "constituency_id": 3,
    "district_id": 19,
    "state_id": 1
  },
  {
   "mandal_id": 10,
    "mandal_name": "Santabommaali",
    "constituency_id": 3,
    "district_id": 19,
    "state_id": 1
  },
  {
   "mandal_id": 13,
    "mandal_name": "Kothur",
    "constituency_id": 4,
    "district_id": 19,
    "state_id": 1
  },
  {
   "mandal_id": 12,
    "mandal_name": "Hirmandalam",
    "constituency_id": 4,
    "district_id": 19,
    "state_id": 1
  },
  {
   "mandal_id": 16,
    "mandal_name": "Pathapatnam",
    "constituency_id": 4,
    "district_id": 19,
    "state_id": 1
  },
  {
   "mandal_id": 15,
    "mandal_name": "Meliaputti",
    "constituency_id": 4,
    "district_id": 19,
    "state_id": 1
  },
  {
   "mandal_id": 14,
    "mandal_name": "LakshminarsuPettah",
    "constituency_id": 4,
    "district_id": 19,
    "state_id": 1
  },
  {
   "mandal_id": 17,
    "mandal_name": "aKoneruGattu Revenue Division  Srikakulam",
    "constituency_id": 5,
    "district_id": 19,
    "state_id": 1
  },
  {
   "mandal_id": 19,
    "mandal_name": "Srikakulam",
    "constituency_id": 5,
    "district_id": 19,
    "state_id": 1
  },
  {
   "mandal_id": 18,
    "mandal_name": "Gara",
    "constituency_id": 5,
    "district_id": 19,
    "state_id": 1
  },
  {
   "mandal_id": 20,
    "mandal_name": "Amadalavalasa",
    "constituency_id": 6,
    "district_id": 19,
    "state_id": 1
  },
  {
   "mandal_id": 21,
    "mandal_name": "Burja",
    "constituency_id": 6,
    "district_id": 19,
    "state_id": 1
  },
  {
   "mandal_id": 23,
    "mandal_name": "Sarubujili",
    "constituency_id": 6,
    "district_id": 19,
    "state_id": 1
  },
  {
   "mandal_id": 22,
    "mandal_name": "Ponduru",
    "constituency_id": 6,
    "district_id": 19,
    "state_id": 1
  },
  {
   "mandal_id": 25,
    "mandal_name": "G.Sigdam",
    "constituency_id": 7,
    "district_id": 19,
    "state_id": 1
  },
  {
   "mandal_id": 27,
    "mandal_name": "Ranasdhlam",
    "constituency_id": 7,
    "district_id": 19,
    "state_id": 1
  },
  {
   "mandal_id": 26,
    "mandal_name": "Laveru",
    "constituency_id": 7,
    "district_id": 19,
    "state_id": 1
  },
  {
   "mandal_id": 24,
    "mandal_name": "Etcharla",
    "constituency_id": 7,
    "district_id": 19,
    "state_id": 1
  },
  {
   "mandal_id": 30,
    "mandal_name": "Polaki",
    "constituency_id": 8,
    "district_id": 19,
    "state_id": 1
  },
  {
   "mandal_id": 28,
    "mandal_name": "Jalumuru",
    "constituency_id": 8,
    "district_id": 19,
    "state_id": 1
  },
  {
   "mandal_id": 31,
    "mandal_name": "Sarvkota",
    "constituency_id": 8,
    "district_id": 19,
    "state_id": 1
  },
  {
   "mandal_id": 29,
    "mandal_name": "Narasannapeta",
    "constituency_id": 8,
    "district_id": 19,
    "state_id": 1
  },
  {
   "mandal_id": 34,
    "mandal_name": "SanthKaviti",
    "constituency_id": 9,
    "district_id": 19,
    "state_id": 1
  },
  {
   "mandal_id": 32,
    "mandal_name": "Rajam",
    "constituency_id": 9,
    "district_id": 19,
    "state_id": 1
  },
  {
   "mandal_id": 35,
    "mandal_name": "Vangara",
    "constituency_id": 9,
    "district_id": 19,
    "state_id": 1
  },
  {
   "mandal_id": 33,
    "mandal_name": "Regidi Amadalavalasa",
    "constituency_id": 9,
    "district_id": 19,
    "state_id": 1
  },
  {
   "mandal_id": 37,
    "mandal_name": "Palakonda",
    "constituency_id": 10,
    "district_id": 19,
    "state_id": 1
  },
  {
   "mandal_id": 39,
    "mandal_name": "Veeraghattam",
    "constituency_id": 10,
    "district_id": 19,
    "state_id": 1
  },
  {
   "mandal_id": 38,
    "mandal_name": "Seethampeta",
    "constituency_id": 10,
    "district_id": 19,
    "state_id": 1
  },
  {
   "mandal_id": 36,
    "mandal_name": "Bamini",
    "constituency_id": 10,
    "district_id": 19,
    "state_id": 1
  },
  {
   "mandal_id": 40,
    "mandal_name": "Garugubilli",
    "constituency_id": 11,
    "district_id": 21,
    "state_id": 1
  },
  {
   "mandal_id": 41,
    "mandal_name": "GummalaxmiPuram",
    "constituency_id": 11,
    "district_id": 21,
    "state_id": 1
  },
  {
   "mandal_id": 42,
    "mandal_name": "Jiyyammavalasa",
    "constituency_id": 11,
    "district_id": 21,
    "state_id": 1
  },
  {
   "mandal_id": 43,
    "mandal_name": "Komarada",
    "constituency_id": 11,
    "district_id": 21,
    "state_id": 1
  },
  {
   "mandal_id": 44,
    "mandal_name": "Kurupam",
    "constituency_id": 11,
    "district_id": 21,
    "state_id": 1
  },
  {
   "mandal_id": 45,
    "mandal_name": "Baljipet",
    "constituency_id": 12,
    "district_id": 21,
    "state_id": 1
  },
  {
   "mandal_id": 47,
    "mandal_name": "SEETA NAGARAM",
    "constituency_id": 12,
    "district_id": 21,
    "state_id": 1
  },
  {
   "mandal_id": 46,
    "mandal_name": "Parvathipuram",
    "constituency_id": 12,
    "district_id": 21,
    "state_id": 1
  },
  {
   "mandal_id": 48,
    "mandal_name": "Makkuva",
    "constituency_id": 13,
    "district_id": 21,
    "state_id": 1
  },
  {
   "mandal_id": 51,
    "mandal_name": "Saluru",
    "constituency_id": 13,
    "district_id": 21,
    "state_id": 1
  },
  {
   "mandal_id": 50,
    "mandal_name": "Pachipenta",
    "constituency_id": 13,
    "district_id": 21,
    "state_id": 1
  },
  {
   "mandal_id": 49,
    "mandal_name": "Mentada",
    "constituency_id": 13,
    "district_id": 21,
    "state_id": 1
  },
  {
   "mandal_id": 52,
    "mandal_name": "Badnagi",
    "constituency_id": 14,
    "district_id": 21,
    "state_id": 1
  },
  {
   "mandal_id": 54,
    "mandal_name": "RamabhadraPuram",
    "constituency_id": 14,
    "district_id": 21,
    "state_id": 1
  },
  {
   "mandal_id": 53,
    "mandal_name": "Bobbili",
    "constituency_id": 14,
    "district_id": 21,
    "state_id": 1
  },
  {
   "mandal_id": 55,
    "mandal_name": "Terlam",
    "constituency_id": 14,
    "district_id": 21,
    "state_id": 1
  },
  {
   "mandal_id": 58,
    "mandal_name": "Gurla",
    "constituency_id": 15,
    "district_id": 21,
    "state_id": 1
  },
  {
   "mandal_id": 57,
    "mandal_name": "Garividi",
    "constituency_id": 15,
    "district_id": 21,
    "state_id": 1
  },
  {
   "mandal_id": 56,
    "mandal_name": "Cheepurupalli",
    "constituency_id": 15,
    "district_id": 21,
    "state_id": 1
  },
  {
   "mandal_id": 59,
    "mandal_name": "MERAKAMUDIDAM",
    "constituency_id": 15,
    "district_id": 21,
    "state_id": 1
  },
  {
   "mandal_id": 63,
    "mandal_name": "Gantyada",
    "constituency_id": 16,
    "district_id": 21,
    "state_id": 1
  },
  {
   "mandal_id": 60,
    "mandal_name": "Bondapalli",
    "constituency_id": 16,
    "district_id": 21,
    "state_id": 1
  },
  {
   "mandal_id": 61,
    "mandal_name": "Dathirajeru",
    "constituency_id": 16,
    "district_id": 21,
    "state_id": 1
  },
  {
   "mandal_id": 62,
    "mandal_name": "GAJAPATHINAGARAM",
    "constituency_id": 16,
    "district_id": 21,
    "state_id": 1
  },
  {
   "mandal_id": 64,
    "mandal_name": "Jami",
    "constituency_id": 16,
    "district_id": 21,
    "state_id": 1
  },
  {
   "mandal_id": 65,
    "mandal_name": "BogaPuram",
    "constituency_id": 17,
    "district_id": 21,
    "state_id": 1
  },
  {
   "mandal_id": 68,
    "mandal_name": "Puspatirega",
    "constituency_id": 17,
    "district_id": 21,
    "state_id": 1
  },
  {
   "mandal_id": 67,
    "mandal_name": "Nellimarla",
    "constituency_id": 17,
    "district_id": 21,
    "state_id": 1
  },
  {
   "mandal_id": 66,
    "mandal_name": "Denkada",
    "constituency_id": 17,
    "district_id": 21,
    "state_id": 1
  },
  {
   "mandal_id": 69,
    "mandal_name": "Vizianagaram",
    "constituency_id": 18,
    "district_id": 21,
    "state_id": 1
  },
  {
   "mandal_id": 74,
    "mandal_name": "Vepada",
    "constituency_id": 19,
    "district_id": 21,
    "state_id": 1
  },
  {
   "mandal_id": 70,
    "mandal_name": "Jami",
    "constituency_id": 19,
    "district_id": 21,
    "state_id": 1
  },
  {
   "mandal_id": 71,
    "mandal_name": "Kothavalasa",
    "constituency_id": 19,
    "district_id": 21,
    "state_id": 1
  },
  {
   "mandal_id": 72,
    "mandal_name": "L.KOTA",
    "constituency_id": 19,
    "district_id": 21,
    "state_id": 1
  },
  {
   "mandal_id": 73,
    "mandal_name": "S.KOTA",
    "constituency_id": 19,
    "district_id": 21,
    "state_id": 1
  },
  {
   "mandal_id": 77,
    "mandal_name": "Padmanabham",
    "constituency_id": 20,
    "district_id": 20,
    "state_id": 1
  },
  {
   "mandal_id": 75,
    "mandal_name": "Anandapuram",
    "constituency_id": 20,
    "district_id": 20,
    "state_id": 1
  },
  {
   "mandal_id": 76,
    "mandal_name": "Bheemunipatnam",
    "constituency_id": 20,
    "district_id": 20,
    "state_id": 1
  },
  {
   "mandal_id": 78,
    "mandal_name": "Vishakhaptnam, Rural",
    "constituency_id": 20,
    "district_id": 20,
    "state_id": 1
  },
  {
   "mandal_id": 79,
    "mandal_name": "VISAKHAPATNAM (RURAL)",
    "constituency_id": 21,
    "district_id": 20,
    "state_id": 1
  },
  {
   "mandal_id": 80,
    "mandal_name": "VISAKHAPATNAM (URBAN)",
    "constituency_id": 21,
    "district_id": 20,
    "state_id": 1
  },
  {
   "mandal_id": 81,
    "mandal_name": "Visakhapatnam Arban",
    "constituency_id": 22,
    "district_id": 20,
    "state_id": 1
  },
  {
   "mandal_id": 82,
    "mandal_name": "Visakhapatnam Arban",
    "constituency_id": 23,
    "district_id": 20,
    "state_id": 1
  },
  {
   "mandal_id": 83,
    "mandal_name": "VISAKHAPATNAM (RURAL)",
    "constituency_id": 24,
    "district_id": 20,
    "state_id": 1
  },
  {
   "mandal_id": 84,
    "mandal_name": "VISAKHAPATNAM (URBAN)",
    "constituency_id": 24,
    "district_id": 20,
    "state_id": 1
  },
  {
   "mandal_id": 85,
    "mandal_name": "Gajuwaka",
    "constituency_id": 25,
    "district_id": 20,
    "state_id": 1
  },
  {
   "mandal_id": 86,
    "mandal_name": "Pedagantiyada",
    "constituency_id": 25,
    "district_id": 20,
    "state_id": 1
  },
  {
   "mandal_id": 89,
    "mandal_name": "Ravikmtam",
    "constituency_id": 26,
    "district_id": 20,
    "state_id": 1
  },
  {
   "mandal_id": 87,
    "mandal_name": "Butchaiahpeta",
    "constituency_id": 26,
    "district_id": 20,
    "state_id": 1
  },
  {
   "mandal_id": 88,
    "mandal_name": "Chodavaram",
    "constituency_id": 26,
    "district_id": 20,
    "state_id": 1
  },
  {
   "mandal_id": 90,
    "mandal_name": "Rolugunta",
    "constituency_id": 26,
    "district_id": 20,
    "state_id": 1
  },
  {
   "mandal_id": 94,
    "mandal_name": "V.Madugula",
    "constituency_id": 27,
    "district_id": 20,
    "state_id": 1
  },
  {
   "mandal_id": 92,
    "mandal_name": "DEVARAPALLI",
    "constituency_id": 27,
    "district_id": 20,
    "state_id": 1
  },
  {
   "mandal_id": 93,
    "mandal_name": "K.KOTAPADU",
    "constituency_id": 27,
    "district_id": 20,
    "state_id": 1
  },
  {
   "mandal_id": 91,
    "mandal_name": "Cheedikada",
    "constituency_id": 27,
    "district_id": 20,
    "state_id": 1
  },
  {
   "mandal_id": 98,
    "mandal_name": "Hukumpeta",
    "constituency_id": 28,
    "district_id": 20,
    "state_id": 1
  },
  {
   "mandal_id": 95,
    "mandal_name": "Anantagiri",
    "constituency_id": 28,
    "district_id": 20,
    "state_id": 1
  },
  {
   "mandal_id": 96,
    "mandal_name": "Arkuveli",
    "constituency_id": 28,
    "district_id": 20,
    "state_id": 1
  },
  {
   "mandal_id": 97,
    "mandal_name": "Dumbiriguda",
    "constituency_id": 28,
    "district_id": 20,
    "state_id": 1
  },
  {
   "mandal_id": 99,
    "mandal_name": "Munchingiputtu",
    "constituency_id": 28,
    "district_id": 20,
    "state_id": 1
  },
  {
   "mandal_id": 100,
    "mandal_name": "Pedabayalu",
    "constituency_id": 28,
    "district_id": 20,
    "state_id": 1
  },
  {
   "mandal_id": 101,
    "mandal_name": "Chintapalli",
    "constituency_id": 29,
    "district_id": 20,
    "state_id": 1
  },
  {
   "mandal_id": 105,
    "mandal_name": "Paderoo",
    "constituency_id": 29,
    "district_id": 20,
    "state_id": 1
  },
  {
   "mandal_id": 104,
    "mandal_name": "Koyyuru",
    "constituency_id": 29,
    "district_id": 20,
    "state_id": 1
  },
  {
   "mandal_id": 103,
    "mandal_name": "Gudenkothaveedhi",
    "constituency_id": 29,
    "district_id": 20,
    "state_id": 1
  },
  {
   "mandal_id": 102,
    "mandal_name": "G. Madugula",
    "constituency_id": 29,
    "district_id": 20,
    "state_id": 1
  },
  {
   "mandal_id": 106,
    "mandal_name": "Anakapalle",
    "constituency_id": 30,
    "district_id": 20,
    "state_id": 1
  },
  {
   "mandal_id": 107,
    "mandal_name": "Kashinkota",
    "constituency_id": 30,
    "district_id": 20,
    "state_id": 1
  },
  {
   "mandal_id": 108,
    "mandal_name": "Paravada",
    "constituency_id": 31,
    "district_id": 20,
    "state_id": 1
  },
  {
   "mandal_id": 111,
    "mandal_name": "Sabbavaram",
    "constituency_id": 31,
    "district_id": 20,
    "state_id": 1
  },
  {
   "mandal_id": 110,
    "mandal_name": "Pendurthi",
    "constituency_id": 31,
    "district_id": 20,
    "state_id": 1
  },
  {
   "mandal_id": 109,
    "mandal_name": "Pedagantyada",
    "constituency_id": 31,
    "district_id": 20,
    "state_id": 1
  },
  {
   "mandal_id": 112,
    "mandal_name": "Atchutapuram",
    "constituency_id": 32,
    "district_id": 20,
    "state_id": 1
  },
  {
   "mandal_id": 115,
    "mandal_name": "Rambilli",
    "constituency_id": 32,
    "district_id": 20,
    "state_id": 1
  },
  {
   "mandal_id": 114,
    "mandal_name": "Munagapaka",
    "constituency_id": 32,
    "district_id": 20,
    "state_id": 1
  },
  {
   "mandal_id": 113,
    "mandal_name": "Ellamanchili",
    "constituency_id": 32,
    "district_id": 20,
    "state_id": 1
  },
  {
   "mandal_id": 116,
    "mandal_name": "Kotauratla",
    "constituency_id": 33,
    "district_id": 20,
    "state_id": 1
  },
  {
   "mandal_id": 119,
    "mandal_name": "S. Rayavaram",
    "constituency_id": 33,
    "district_id": 20,
    "state_id": 1
  },
  {
   "mandal_id": 118,
    "mandal_name": "Payakaraopet",
    "constituency_id": 33,
    "district_id": 20,
    "state_id": 1
  },
  {
   "mandal_id": 117,
    "mandal_name": "Nakkapalli",
    "constituency_id": 33,
    "district_id": 20,
    "state_id": 1
  },
  {
   "mandal_id": 121,
    "mandal_name": "Makavarapalem",
    "constituency_id": 34,
    "district_id": 20,
    "state_id": 1
  },
  {
   "mandal_id": 123,
    "mandal_name": "Nathavaram",
    "constituency_id": 34,
    "district_id": 20,
    "state_id": 1
  },
  {
   "mandal_id": 122,
    "mandal_name": "Narsipatnam",
    "constituency_id": 34,
    "district_id": 20,
    "state_id": 1
  },
  {
   "mandal_id": 120,
    "mandal_name": "Golugonda",
    "constituency_id": 34,
    "district_id": 20,
    "state_id": 1
  },
  {
   "mandal_id": 126,
    "mandal_name": "Tuni",
    "constituency_id": 35,
    "district_id": 4,
    "state_id": 1
  },
  {
   "mandal_id": 125,
    "mandal_name": "Tondanagi",
    "constituency_id": 35,
    "district_id": 4,
    "state_id": 1
  },
  {
   "mandal_id": 124,
    "mandal_name": "Kotnanduru",
    "constituency_id": 35,
    "district_id": 4,
    "state_id": 1
  },
  {
   "mandal_id": 130,
    "mandal_name": "Sankavaram",
    "constituency_id": 36,
    "district_id": 4,
    "state_id": 1
  },
  {
   "mandal_id": 129,
    "mandal_name": "Rowthulapudi",
    "constituency_id": 36,
    "district_id": 4,
    "state_id": 1
  },
  {
   "mandal_id": 128,
    "mandal_name": "Prathipadu",
    "constituency_id": 36,
    "district_id": 4,
    "state_id": 1
  },
  {
   "mandal_id": 127,
    "mandal_name": "Eleshvaram",
    "constituency_id": 36,
    "district_id": 4,
    "state_id": 1
  },
  {
   "mandal_id": 131,
    "mandal_name": "Gollaprolu",
    "constituency_id": 37,
    "district_id": 4,
    "state_id": 1
  },
  {
   "mandal_id": 132,
    "mandal_name": "Kothapalli",
    "constituency_id": 37,
    "district_id": 4,
    "state_id": 1
  },
  {
   "mandal_id": 133,
    "mandal_name": "Pithapuram",
    "constituency_id": 37,
    "district_id": 4,
    "state_id": 1
  },
  {
   "mandal_id": 136,
    "mandal_name": "Karapa",
    "constituency_id": 38,
    "district_id": 4,
    "state_id": 1
  },
  {
   "mandal_id": 135,
    "mandal_name": "Kakinada Rural",
    "constituency_id": 38,
    "district_id": 4,
    "state_id": 1
  },
  {
   "mandal_id": 134,
    "mandal_name": "Kakinada",
    "constituency_id": 38,
    "district_id": 4,
    "state_id": 1
  },
  {
   "mandal_id": 137,
    "mandal_name": "Peddapuram",
    "constituency_id": 39,
    "district_id": 4,
    "state_id": 1
  },
  {
   "mandal_id": 138,
    "mandal_name": "Samalkot",
    "constituency_id": 39,
    "district_id": 4,
    "state_id": 1
  },
  {
   "mandal_id": 140,
    "mandal_name": "Biccavolu",
    "constituency_id": 40,
    "district_id": 4,
    "state_id": 1
  },
  {
   "mandal_id": 142,
    "mandal_name": "Rangampet",
    "constituency_id": 40,
    "district_id": 4,
    "state_id": 1
  },
  {
   "mandal_id": 141,
    "mandal_name": "Pedapudi",
    "constituency_id": 40,
    "district_id": 4,
    "state_id": 1
  },
  {
   "mandal_id": 139,
    "mandal_name": "Anaparthi",
    "constituency_id": 40,
    "district_id": 4,
    "state_id": 1
  },
  {
   "mandal_id": 143,
    "mandal_name": "Kakinada Urban",
    "constituency_id": 41,
    "district_id": 4,
    "state_id": 1
  },
  {
   "mandal_id": 145,
    "mandal_name": "Pamarru",
    "constituency_id": 42,
    "district_id": 4,
    "state_id": 1
  },
  {
   "mandal_id": 146,
    "mandal_name": "Ramchandrapuram",
    "constituency_id": 42,
    "district_id": 4,
    "state_id": 1
  },
  {
   "mandal_id": 144,
    "mandal_name": "KAJULURU",
    "constituency_id": 42,
    "district_id": 4,
    "state_id": 1
  },
  {
   "mandal_id": 150,
    "mandal_name": "Talzhrevu",
    "constituency_id": 43,
    "district_id": 4,
    "state_id": 1
  },
  {
   "mandal_id": 148,
    "mandal_name": "Katrenikona",
    "constituency_id": 43,
    "district_id": 4,
    "state_id": 1
  },
  {
   "mandal_id": 147,
    "mandal_name": "I.Polavaram",
    "constituency_id": 43,
    "district_id": 4,
    "state_id": 1
  },
  {
   "mandal_id": 149,
    "mandal_name": "Mummidivaram",
    "constituency_id": 43,
    "district_id": 4,
    "state_id": 1
  },
  {
   "mandal_id": 153,
    "mandal_name": "UPPALAGUPTHAM",
    "constituency_id": 44,
    "district_id": 4,
    "state_id": 1
  },
  {
   "mandal_id": 151,
    "mandal_name": "ALLAVARAM",
    "constituency_id": 44,
    "district_id": 4,
    "state_id": 1
  },
  {
   "mandal_id": 152,
    "mandal_name": "AMALAPURAM",
    "constituency_id": 44,
    "district_id": 4,
    "state_id": 1
  },
  {
   "mandal_id": 157,
    "mandal_name": "Sakhinetipalli",
    "constituency_id": 45,
    "district_id": 4,
    "state_id": 1
  },
  {
   "mandal_id": 154,
    "mandal_name": "Malikipuram",
    "constituency_id": 45,
    "district_id": 4,
    "state_id": 1
  },
  {
   "mandal_id": 155,
    "mandal_name": "Mamidikudru",
    "constituency_id": 45,
    "district_id": 4,
    "state_id": 1
  },
  {
   "mandal_id": 156,
    "mandal_name": "Razole",
    "constituency_id": 45,
    "district_id": 4,
    "state_id": 1
  },
  {
   "mandal_id": 159,
    "mandal_name": "Ayinvilli",
    "constituency_id": 46,
    "district_id": 4,
    "state_id": 1
  },
  {
   "mandal_id": 160,
    "mandal_name": "Mamidikudru",
    "constituency_id": 46,
    "district_id": 4,
    "state_id": 1
  },
  {
   "mandal_id": 158,
    "mandal_name": "AmbaGPettah",
    "constituency_id": 46,
    "district_id": 4,
    "state_id": 1
  },
  {
   "mandal_id": 161,
    "mandal_name": "P.Gannavaram",
    "constituency_id": 46,
    "district_id": 4,
    "state_id": 1
  },
  {
   "mandal_id": 165,
    "mandal_name": "Ravulapalem",
    "constituency_id": 47,
    "district_id": 4,
    "state_id": 1
  },
  {
   "mandal_id": 162,
    "mandal_name": "Almuru",
    "constituency_id": 47,
    "district_id": 4,
    "state_id": 1
  },
  {
   "mandal_id": 164,
    "mandal_name": "Kothapeta",
    "constituency_id": 47,
    "district_id": 4,
    "state_id": 1
  },
  {
   "mandal_id": 163,
    "mandal_name": "Atreyapuram",
    "constituency_id": 47,
    "district_id": 4,
    "state_id": 1
  },
  {
   "mandal_id": 166,
    "mandal_name": "Kapileswarapuram",
    "constituency_id": 48,
    "district_id": 4,
    "state_id": 1
  },
  {
   "mandal_id": 167,
    "mandal_name": "Mandapeta",
    "constituency_id": 48,
    "district_id": 4,
    "state_id": 1
  },
  {
   "mandal_id": 168,
    "mandal_name": "Rayavaram",
    "constituency_id": 48,
    "district_id": 4,
    "state_id": 1
  },
  {
   "mandal_id": 169,
    "mandal_name": "Korukonda",
    "constituency_id": 49,
    "district_id": 4,
    "state_id": 1
  },
  {
   "mandal_id": 170,
    "mandal_name": "Rajanagaram",
    "constituency_id": 49,
    "district_id": 4,
    "state_id": 1
  },
  {
   "mandal_id": 171,
    "mandal_name": "Seethanagaram",
    "constituency_id": 49,
    "district_id": 4,
    "state_id": 1
  },
  {
   "mandal_id": 172,
    "mandal_name": "Rajahmundry",
    "constituency_id": 50,
    "district_id": 4,
    "state_id": 1
  },
  {
   "mandal_id": 173,
    "mandal_name": "Kadiyam",
    "constituency_id": 51,
    "district_id": 4,
    "state_id": 1
  },
  {
   "mandal_id": 174,
    "mandal_name": "Rajahmundry Rural",
    "constituency_id": 51,
    "district_id": 4,
    "state_id": 1
  },
  {
   "mandal_id": 175,
    "mandal_name": "Gandepalli",
    "constituency_id": 52,
    "district_id": 4,
    "state_id": 1
  },
  {
   "mandal_id": 176,
    "mandal_name": "Gokavaram",
    "constituency_id": 52,
    "district_id": 4,
    "state_id": 1
  },
  {
   "mandal_id": 177,
    "mandal_name": "Jaggampeta",
    "constituency_id": 52,
    "district_id": 4,
    "state_id": 1
  },
  {
   "mandal_id": 178,
    "mandal_name": "Kirlampudi",
    "constituency_id": 52,
    "district_id": 4,
    "state_id": 1
  },
  {
   "mandal_id": 179,
    "mandal_name": "Rangampet",
    "constituency_id": 52,
    "district_id": 4,
    "state_id": 1
  },
  {
   "mandal_id": 185,
    "mandal_name": "MAREDUMILLI",
    "constituency_id": 53,
    "district_id": 4,
    "state_id": 1
  },
  {
   "mandal_id": 180,
    "mandal_name": "ADDATEEGALA",
    "constituency_id": 53,
    "district_id": 4,
    "state_id": 1
  },
  {
   "mandal_id": 181,
    "mandal_name": "CHINTOOR",
    "constituency_id": 53,
    "district_id": 4,
    "state_id": 1
  },
  {
   "mandal_id": 182,
    "mandal_name": "DEVIPATNAM",
    "constituency_id": 53,
    "district_id": 4,
    "state_id": 1
  },
  {
   "mandal_id": 183,
    "mandal_name": "GANGAVARAM",
    "constituency_id": 53,
    "district_id": 4,
    "state_id": 1
  },
  {
   "mandal_id": 184,
    "mandal_name": "KUNAVARAM",
    "constituency_id": 53,
    "district_id": 4,
    "state_id": 1
  },
  {
   "mandal_id": 186,
    "mandal_name": "NELLIPAKA",
    "constituency_id": 53,
    "district_id": 4,
    "state_id": 1
  },
  {
   "mandal_id": 187,
    "mandal_name": "RAJAVOMMANGI",
    "constituency_id": 53,
    "district_id": 4,
    "state_id": 1
  },
  {
   "mandal_id": 188,
    "mandal_name": "RAMPACHODAVARAM",
    "constituency_id": 53,
    "district_id": 4,
    "state_id": 1
  },
  {
   "mandal_id": 189,
    "mandal_name": "VARARAMACHANDRAPURAM",
    "constituency_id": 53,
    "district_id": 4,
    "state_id": 1
  },
  {
   "mandal_id": 190,
    "mandal_name": "Y.RAMAVARAM",
    "constituency_id": 53,
    "district_id": 4,
    "state_id": 1
  },
  {
   "mandal_id": 191,
    "mandal_name": "Chagallu",
    "constituency_id": 54,
    "district_id": 23,
    "state_id": 1
  },
  {
   "mandal_id": 193,
    "mandal_name": "Tallapudi",
    "constituency_id": 54,
    "district_id": 23,
    "state_id": 1
  },
  {
   "mandal_id": 192,
    "mandal_name": "Kovvuru",
    "constituency_id": 54,
    "district_id": 23,
    "state_id": 1
  },
  {
   "mandal_id": 196,
    "mandal_name": "Undrajavaram",
    "constituency_id": 55,
    "district_id": 23,
    "state_id": 1
  },
  {
   "mandal_id": 195,
    "mandal_name": "Peravali",
    "constituency_id": 55,
    "district_id": 23,
    "state_id": 1
  },
  {
   "mandal_id": 194,
    "mandal_name": "Nidadavole",
    "constituency_id": 55,
    "district_id": 23,
    "state_id": 1
  },
  {
   "mandal_id": 200,
    "mandal_name": "Poduru",
    "constituency_id": 56,
    "district_id": 23,
    "state_id": 1
  },
  {
   "mandal_id": 199,
    "mandal_name": "Penumantra",
    "constituency_id": 56,
    "district_id": 23,
    "state_id": 1
  },
  {
   "mandal_id": 198,
    "mandal_name": "Penugonda",
    "constituency_id": 56,
    "district_id": 23,
    "state_id": 1
  },
  {
   "mandal_id": 197,
    "mandal_name": "Achanta",
    "constituency_id": 56,
    "district_id": 23,
    "state_id": 1
  },
  {
   "mandal_id": 203,
    "mandal_name": "Yalamanchili",
    "constituency_id": 57,
    "district_id": 23,
    "state_id": 1
  },
  {
   "mandal_id": 202,
    "mandal_name": "Poduru",
    "constituency_id": 57,
    "district_id": 23,
    "state_id": 1
  },
  {
   "mandal_id": 201,
    "mandal_name": "Palakollu",
    "constituency_id": 57,
    "district_id": 23,
    "state_id": 1
  },
  {
   "mandal_id": 205,
    "mandal_name": "Narsaapuram",
    "constituency_id": 58,
    "district_id": 23,
    "state_id": 1
  },
  {
   "mandal_id": 204,
    "mandal_name": "Mogalturu",
    "constituency_id": 58,
    "district_id": 23,
    "state_id": 1
  },
  {
   "mandal_id": 207,
    "mandal_name": "Veeravasaram",
    "constituency_id": 59,
    "district_id": 23,
    "state_id": 1
  },
  {
   "mandal_id": 206,
    "mandal_name": "Bhimavaram",
    "constituency_id": 59,
    "district_id": 23,
    "state_id": 1
  },
  {
   "mandal_id": 209,
    "mandal_name": "Kalla",
    "constituency_id": 60,
    "district_id": 23,
    "state_id": 1
  },
  {
   "mandal_id": 208,
    "mandal_name": "Akividu",
    "constituency_id": 60,
    "district_id": 23,
    "state_id": 1
  },
  {
   "mandal_id": 211,
    "mandal_name": "Undi",
    "constituency_id": 60,
    "district_id": 23,
    "state_id": 1
  },
  {
   "mandal_id": 210,
    "mandal_name": "Palakoderu",
    "constituency_id": 60,
    "district_id": 23,
    "state_id": 1
  },
  {
   "mandal_id": 213,
    "mandal_name": "Iragavaram",
    "constituency_id": 61,
    "district_id": 23,
    "state_id": 1
  },
  {
   "mandal_id": 212,
    "mandal_name": "Athili",
    "constituency_id": 61,
    "district_id": 23,
    "state_id": 1
  },
  {
   "mandal_id": 214,
    "mandal_name": "Tanuku",
    "constituency_id": 61,
    "district_id": 23,
    "state_id": 1
  },
  {
   "mandal_id": 216,
    "mandal_name": "Tadepalligudem",
    "constituency_id": 62,
    "district_id": 23,
    "state_id": 1
  },
  {
   "mandal_id": 215,
    "mandal_name": "Pentapadu",
    "constituency_id": 62,
    "district_id": 23,
    "state_id": 1
  },
  {
   "mandal_id": 218,
    "mandal_name": "Ganapavaram",
    "constituency_id": 63,
    "district_id": 23,
    "state_id": 1
  },
  {
   "mandal_id": 219,
    "mandal_name": "Nidamarru",
    "constituency_id": 63,
    "district_id": 23,
    "state_id": 1
  },
  {
   "mandal_id": 220,
    "mandal_name": "Unguturu",
    "constituency_id": 63,
    "district_id": 23,
    "state_id": 1
  },
  {
   "mandal_id": 217,
    "mandal_name": "Bhimadole",
    "constituency_id": 63,
    "district_id": 23,
    "state_id": 1
  },
  {
   "mandal_id": 222,
    "mandal_name": "Eluru",
    "constituency_id": 64,
    "district_id": 23,
    "state_id": 1
  },
  {
   "mandal_id": 223,
    "mandal_name": "Pedapadu",
    "constituency_id": 64,
    "district_id": 23,
    "state_id": 1
  },
  {
   "mandal_id": 224,
    "mandal_name": "Pedavegi",
    "constituency_id": 64,
    "district_id": 23,
    "state_id": 1
  },
  {
   "mandal_id": 221,
    "mandal_name": "Denduluru",
    "constituency_id": 64,
    "district_id": 23,
    "state_id": 1
  },
  {
   "mandal_id": 225,
    "mandal_name": "Eluru",
    "constituency_id": 65,
    "district_id": 23,
    "state_id": 1
  },
  {
   "mandal_id": 226,
    "mandal_name": "Devarapalle",
    "constituency_id": 66,
    "district_id": 23,
    "state_id": 1
  },
  {
   "mandal_id": 227,
    "mandal_name": "Dwarakatirumala",
    "constituency_id": 66,
    "district_id": 23,
    "state_id": 1
  },
  {
   "mandal_id": 228,
    "mandal_name": "Gopalapuram",
    "constituency_id": 66,
    "district_id": 23,
    "state_id": 1
  },
  {
   "mandal_id": 229,
    "mandal_name": "Nallajarla",
    "constituency_id": 66,
    "district_id": 23,
    "state_id": 1
  },
  {
   "mandal_id": 232,
    "mandal_name": "Koyyalagudem",
    "constituency_id": 67,
    "district_id": 23,
    "state_id": 1
  },
  {
   "mandal_id": 230,
    "mandal_name": "Buttayagudem",
    "constituency_id": 67,
    "district_id": 23,
    "state_id": 1
  },
  {
   "mandal_id": 231,
    "mandal_name": "Jeelugumilli",
    "constituency_id": 67,
    "district_id": 23,
    "state_id": 1
  },
  {
   "mandal_id": 233,
    "mandal_name": "KUKUNURU",
    "constituency_id": 67,
    "district_id": 23,
    "state_id": 1
  },
  {
   "mandal_id": 234,
    "mandal_name": "Polavaram",
    "constituency_id": 67,
    "district_id": 23,
    "state_id": 1
  },
  {
   "mandal_id": 235,
    "mandal_name": "T.Narasapuram",
    "constituency_id": 67,
    "district_id": 23,
    "state_id": 1
  },
  {
   "mandal_id": 237,
    "mandal_name": "",
    "constituency_id": 67,
    "district_id": 23,
    "state_id": 1
  },
  {
   "mandal_id": 236,
    "mandal_name": "Velairpad",
    "constituency_id": 67,
    "district_id": 23,
    "state_id": 1
  },
  {
   "mandal_id": 238,
    "mandal_name": "Chintalpudi",
    "constituency_id": 68,
    "district_id": 23,
    "state_id": 1
  },
  {
   "mandal_id": 239,
    "mandal_name": "Jangareddigudem",
    "constituency_id": 68,
    "district_id": 23,
    "state_id": 1
  },
  {
   "mandal_id": 240,
    "mandal_name": "Kamavarapukota",
    "constituency_id": 68,
    "district_id": 23,
    "state_id": 1
  },
  {
   "mandal_id": 241,
    "mandal_name": "Lingapalem",
    "constituency_id": 68,
    "district_id": 23,
    "state_id": 1
  },
  {
   "mandal_id": 243,
    "mandal_name": "Gampala gudem",
    "constituency_id": 69,
    "district_id": 10,
    "state_id": 1
  },
  {
   "mandal_id": 245,
    "mandal_name": "Vissannapet",
    "constituency_id": 69,
    "district_id": 10,
    "state_id": 1
  },
  {
   "mandal_id": 244,
    "mandal_name": "Tiruvuru",
    "constituency_id": 69,
    "district_id": 10,
    "state_id": 1
  },
  {
   "mandal_id": 242,
    "mandal_name": "A Konduru",
    "constituency_id": 69,
    "district_id": 10,
    "state_id": 1
  },
  {
   "mandal_id": 246,
    "mandal_name": "Agiripalli",
    "constituency_id": 70,
    "district_id": 10,
    "state_id": 1
  },
  {
   "mandal_id": 249,
    "mandal_name": "Nuzvid",
    "constituency_id": 70,
    "district_id": 10,
    "state_id": 1
  },
  {
   "mandal_id": 248,
    "mandal_name": "Musunuru",
    "constituency_id": 70,
    "district_id": 10,
    "state_id": 1
  },
  {
   "mandal_id": 247,
    "mandal_name": "Chatrai",
    "constituency_id": 70,
    "district_id": 10,
    "state_id": 1
  },
  {
   "mandal_id": 251,
    "mandal_name": "Gannavaram",
    "constituency_id": 71,
    "district_id": 10,
    "state_id": 1
  },
  {
   "mandal_id": 253,
    "mandal_name": "Vijayawada Rural",
    "constituency_id": 71,
    "district_id": 10,
    "state_id": 1
  },
  {
   "mandal_id": 252,
    "mandal_name": "Unguturu",
    "constituency_id": 71,
    "district_id": 10,
    "state_id": 1
  },
  {
   "mandal_id": 250,
    "mandal_name": "Bapulapadu",
    "constituency_id": 71,
    "district_id": 10,
    "state_id": 1
  },
  {
   "mandal_id": 255,
    "mandal_name": "Gudlavalleru",
    "constituency_id": 72,
    "district_id": 10,
    "state_id": 1
  },
  {
   "mandal_id": 256,
    "mandal_name": "Nandivada",
    "constituency_id": 72,
    "district_id": 10,
    "state_id": 1
  },
  {
   "mandal_id": 254,
    "mandal_name": "Gudivada",
    "constituency_id": 72,
    "district_id": 10,
    "state_id": 1
  },
  {
   "mandal_id": 259,
    "mandal_name": "Mandavalli",
    "constituency_id": 73,
    "district_id": 10,
    "state_id": 1
  },
  {
   "mandal_id": 257,
    "mandal_name": "Kaikaluru",
    "constituency_id": 73,
    "district_id": 10,
    "state_id": 1
  },
  {
   "mandal_id": 260,
    "mandal_name": "Mudinepalli",
    "constituency_id": 73,
    "district_id": 10,
    "state_id": 1
  },
  {
   "mandal_id": 258,
    "mandal_name": "Kalidindi",
    "constituency_id": 73,
    "district_id": 10,
    "state_id": 1
  },
  {
   "mandal_id": 262,
    "mandal_name": "Guduru",
    "constituency_id": 74,
    "district_id": 10,
    "state_id": 1
  },
  {
   "mandal_id": 261,
    "mandal_name": "Bantumilli",
    "constituency_id": 74,
    "district_id": 10,
    "state_id": 1
  },
  {
   "mandal_id": 264,
    "mandal_name": "Pedana",
    "constituency_id": 74,
    "district_id": 10,
    "state_id": 1
  },
  {
   "mandal_id": 263,
    "mandal_name": "Kruthivennu",
    "constituency_id": 74,
    "district_id": 10,
    "state_id": 1
  },
  {
   "mandal_id": 265,
    "mandal_name": "Machilipatnam",
    "constituency_id": 75,
    "district_id": 10,
    "state_id": 1
  },
  {
   "mandal_id": 271,
    "mandal_name": "Nagayalanka",
    "constituency_id": 76,
    "district_id": 10,
    "state_id": 1
  },
  {
   "mandal_id": 266,
    "mandal_name": "Avanigadda",
    "constituency_id": 76,
    "district_id": 10,
    "state_id": 1
  },
  {
   "mandal_id": 267,
    "mandal_name": "Challapalli",
    "constituency_id": 76,
    "district_id": 10,
    "state_id": 1
  },
  {
   "mandal_id": 268,
    "mandal_name": "Ghantasala",
    "constituency_id": 76,
    "district_id": 10,
    "state_id": 1
  },
  {
   "mandal_id": 269,
    "mandal_name": "Koduru",
    "constituency_id": 76,
    "district_id": 10,
    "state_id": 1
  },
  {
   "mandal_id": 270,
    "mandal_name": "Mopidevi",
    "constituency_id": 76,
    "district_id": 10,
    "state_id": 1
  },
  {
   "mandal_id": 275,
    "mandal_name": "Pedaparupudi",
    "constituency_id": 77,
    "district_id": 10,
    "state_id": 1
  },
  {
   "mandal_id": 272,
    "mandal_name": "Movva",
    "constituency_id": 77,
    "district_id": 10,
    "state_id": 1
  },
  {
   "mandal_id": 273,
    "mandal_name": "Pamarru",
    "constituency_id": 77,
    "district_id": 10,
    "state_id": 1
  },
  {
   "mandal_id": 274,
    "mandal_name": "Pamidimukkala",
    "constituency_id": 77,
    "district_id": 10,
    "state_id": 1
  },
  {
   "mandal_id": 276,
    "mandal_name": "Thotlavalluru",
    "constituency_id": 77,
    "district_id": 10,
    "state_id": 1
  },
  {
   "mandal_id": 279,
    "mandal_name": "Vuyyuru",
    "constituency_id": 78,
    "district_id": 10,
    "state_id": 1
  },
  {
   "mandal_id": 277,
    "mandal_name": "Kankipadu",
    "constituency_id": 78,
    "district_id": 10,
    "state_id": 1
  },
  {
   "mandal_id": 278,
    "mandal_name": "Penamaluru",
    "constituency_id": 78,
    "district_id": 10,
    "state_id": 1
  },
  {
   "mandal_id": 280,
    "mandal_name": "Vijaywada Urban",
    "constituency_id": 79,
    "district_id": 10,
    "state_id": 1
  },
  {
   "mandal_id": 281,
    "mandal_name": "Vijaywada Urban",
    "constituency_id": 80,
    "district_id": 10,
    "state_id": 1
  },
  {
   "mandal_id": 282,
    "mandal_name": "Vijaywada Urban",
    "constituency_id": 81,
    "district_id": 10,
    "state_id": 1
  },
  {
   "mandal_id": 286,
    "mandal_name": "Reddigudem",
    "constituency_id": 82,
    "district_id": 10,
    "state_id": 1
  },
  {
   "mandal_id": 283,
    "mandal_name": "G. Konduru",
    "constituency_id": 82,
    "district_id": 10,
    "state_id": 1
  },
  {
   "mandal_id": 284,
    "mandal_name": "Ibrahimpatnam",
    "constituency_id": 82,
    "district_id": 10,
    "state_id": 1
  },
  {
   "mandal_id": 285,
    "mandal_name": "Mylavaram",
    "constituency_id": 82,
    "district_id": 10,
    "state_id": 1
  },
  {
   "mandal_id": 287,
    "mandal_name": "Vijayawada Rural",
    "constituency_id": 82,
    "district_id": 10,
    "state_id": 1
  },
  {
   "mandal_id": 288,
    "mandal_name": "Chandarlapadu",
    "constituency_id": 83,
    "district_id": 10,
    "state_id": 1
  },
  {
   "mandal_id": 289,
    "mandal_name": "KanchikaCherla",
    "constituency_id": 83,
    "district_id": 10,
    "state_id": 1
  },
  {
   "mandal_id": 290,
    "mandal_name": "Nandigama",
    "constituency_id": 83,
    "district_id": 10,
    "state_id": 1
  },
  {
   "mandal_id": 291,
    "mandal_name": "Veerullapadu",
    "constituency_id": 83,
    "district_id": 10,
    "state_id": 1
  },
  {
   "mandal_id": 295,
    "mandal_name": "Vatsavai",
    "constituency_id": 84,
    "district_id": 10,
    "state_id": 1
  },
  {
   "mandal_id": 292,
    "mandal_name": "Jaggayyahpeta",
    "constituency_id": 84,
    "district_id": 10,
    "state_id": 1
  },
  {
   "mandal_id": 293,
    "mandal_name": "Nandigama",
    "constituency_id": 84,
    "district_id": 10,
    "state_id": 1
  },
  {
   "mandal_id": 294,
    "mandal_name": "Penuganchiprolu",
    "constituency_id": 84,
    "district_id": 10,
    "state_id": 1
  },
  {
   "mandal_id": 299,
    "mandal_name": "Krosuru",
    "constituency_id": 85,
    "district_id": 5,
    "state_id": 1
  },
  {
   "mandal_id": 296,
    "mandal_name": "Achampet",
    "constituency_id": 85,
    "district_id": 5,
    "state_id": 1
  },
  {
   "mandal_id": 297,
    "mandal_name": "Amaravathi",
    "constituency_id": 85,
    "district_id": 5,
    "state_id": 1
  },
  {
   "mandal_id": 298,
    "mandal_name": "Bellamkonda",
    "constituency_id": 85,
    "district_id": 5,
    "state_id": 1
  },
  {
   "mandal_id": 300,
    "mandal_name": "Pedakurapadu",
    "constituency_id": 85,
    "district_id": 5,
    "state_id": 1
  },
  {
   "mandal_id": 305,
    "mandal_name": "",
    "constituency_id": 86,
    "district_id": 5,
    "state_id": 1
  },
  {
   "mandal_id": 301,
    "mandal_name": "Firangipuram",
    "constituency_id": 86,
    "district_id": 5,
    "state_id": 1
  },
  {
   "mandal_id": 302,
    "mandal_name": "Medikonduru",
    "constituency_id": 86,
    "district_id": 5,
    "state_id": 1
  },
  {
   "mandal_id": 303,
    "mandal_name": "Tadikonda",
    "constituency_id": 86,
    "district_id": 5,
    "state_id": 1
  },
  {
   "mandal_id": 304,
    "mandal_name": "Tulluru",
    "constituency_id": 86,
    "district_id": 5,
    "state_id": 1
  },
  {
   "mandal_id": 308,
    "mandal_name": "Tadepalli",
    "constituency_id": 87,
    "district_id": 5,
    "state_id": 1
  },
  {
   "mandal_id": 306,
    "mandal_name": "Duggirala",
    "constituency_id": 87,
    "district_id": 5,
    "state_id": 1
  },
  {
   "mandal_id": 307,
    "mandal_name": "Mangalagiri",
    "constituency_id": 87,
    "district_id": 5,
    "state_id": 1
  },
  {
   "mandal_id": 309,
    "mandal_name": "Chebrole",
    "constituency_id": 88,
    "district_id": 5,
    "state_id": 1
  },
  {
   "mandal_id": 311,
    "mandal_name": "Ponnur",
    "constituency_id": 88,
    "district_id": 5,
    "state_id": 1
  },
  {
   "mandal_id": 310,
    "mandal_name": "PedaKakani",
    "constituency_id": 88,
    "district_id": 5,
    "state_id": 1
  },
  {
   "mandal_id": 317,
    "mandal_name": "Vemuru",
    "constituency_id": 89,
    "district_id": 5,
    "state_id": 1
  },
  {
   "mandal_id": 318,
    "mandal_name": "",
    "constituency_id": 89,
    "district_id": 5,
    "state_id": 1
  },
  {
   "mandal_id": 316,
    "mandal_name": "Tsunduru",
    "constituency_id": 89,
    "district_id": 5,
    "state_id": 1
  },
  {
   "mandal_id": 315,
    "mandal_name": "Ponnur",
    "constituency_id": 89,
    "district_id": 5,
    "state_id": 1
  },
  {
   "mandal_id": 314,
    "mandal_name": "Kolluru",
    "constituency_id": 89,
    "district_id": 5,
    "state_id": 1
  },
  {
   "mandal_id": 313,
    "mandal_name": "Bhattiprolu",
    "constituency_id": 89,
    "district_id": 5,
    "state_id": 1
  },
  {
   "mandal_id": 312,
    "mandal_name": "Amarthaluru",
    "constituency_id": 89,
    "district_id": 5,
    "state_id": 1
  },
  {
   "mandal_id": 322,
    "mandal_name": "Repalle",
    "constituency_id": 90,
    "district_id": 5,
    "state_id": 1
  },
  {
   "mandal_id": 321,
    "mandal_name": "Nizampatnam",
    "constituency_id": 90,
    "district_id": 5,
    "state_id": 1
  },
  {
   "mandal_id": 320,
    "mandal_name": "Nagaram",
    "constituency_id": 90,
    "district_id": 5,
    "state_id": 1
  },
  {
   "mandal_id": 319,
    "mandal_name": "Cherukupalli",
    "constituency_id": 90,
    "district_id": 5,
    "state_id": 1
  },
  {
   "mandal_id": 324,
    "mandal_name": "Tenali",
    "constituency_id": 91,
    "district_id": 5,
    "state_id": 1
  },
  {
   "mandal_id": 323,
    "mandal_name": "Kollipara",
    "constituency_id": 91,
    "district_id": 5,
    "state_id": 1
  },
  {
   "mandal_id": 327,
    "mandal_name": "Pittalvanipalem",
    "constituency_id": 92,
    "district_id": 5,
    "state_id": 1
  },
  {
   "mandal_id": 325,
    "mandal_name": "Bapatla",
    "constituency_id": 92,
    "district_id": 5,
    "state_id": 1
  },
  {
   "mandal_id": 326,
    "mandal_name": "Karlapalem",
    "constituency_id": 92,
    "district_id": 5,
    "state_id": 1
  },
  {
   "mandal_id": 330,
    "mandal_name": "Peda Nandipadu",
    "constituency_id": 93,
    "district_id": 5,
    "state_id": 1
  },
  {
   "mandal_id": 328,
    "mandal_name": "Guntur",
    "constituency_id": 93,
    "district_id": 5,
    "state_id": 1
  },
  {
   "mandal_id": 329,
    "mandal_name": "Kakumanu",
    "constituency_id": 93,
    "district_id": 5,
    "state_id": 1
  },
  {
   "mandal_id": 331,
    "mandal_name": "Prathipadu",
    "constituency_id": 93,
    "district_id": 5,
    "state_id": 1
  },
  {
   "mandal_id": 332,
    "mandal_name": "Vatticherukuru",
    "constituency_id": 93,
    "district_id": 5,
    "state_id": 1
  },
  {
   "mandal_id": 333,
    "mandal_name": "Guntur",
    "constituency_id": 94,
    "district_id": 5,
    "state_id": 1
  },
  {
   "mandal_id": 334,
    "mandal_name": "Guntur",
    "constituency_id": 95,
    "district_id": 5,
    "state_id": 1
  },
  {
   "mandal_id": 335,
    "mandal_name": "PedaKakani",
    "constituency_id": 95,
    "district_id": 5,
    "state_id": 1
  },
  {
   "mandal_id": 336,
    "mandal_name": "Chilakaluripeta",
    "constituency_id": 96,
    "district_id": 5,
    "state_id": 1
  },
  {
   "mandal_id": 337,
    "mandal_name": "Edlapadu",
    "constituency_id": 96,
    "district_id": 5,
    "state_id": 1
  },
  {
   "mandal_id": 338,
    "mandal_name": "Nadendla",
    "constituency_id": 96,
    "district_id": 5,
    "state_id": 1
  },
  {
   "mandal_id": 339,
    "mandal_name": "Narasaraopet",
    "constituency_id": 97,
    "district_id": 5,
    "state_id": 1
  },
  {
   "mandal_id": 340,
    "mandal_name": "Rompicharla",
    "constituency_id": 97,
    "district_id": 5,
    "state_id": 1
  },
  {
   "mandal_id": 344,
    "mandal_name": "Sattanapalli",
    "constituency_id": 98,
    "district_id": 5,
    "state_id": 1
  },
  {
   "mandal_id": 345,
    "mandal_name": "",
    "constituency_id": 98,
    "district_id": 5,
    "state_id": 1
  },
  {
   "mandal_id": 343,
    "mandal_name": "Rajupalem",
    "constituency_id": 98,
    "district_id": 5,
    "state_id": 1
  },
  {
   "mandal_id": 342,
    "mandal_name": "Nakarikallu",
    "constituency_id": 98,
    "district_id": 5,
    "state_id": 1
  },
  {
   "mandal_id": 341,
    "mandal_name": "Muppalla",
    "constituency_id": 98,
    "district_id": 5,
    "state_id": 1
  },
  {
   "mandal_id": 348,
    "mandal_name": "Nuzendla",
    "constituency_id": 99,
    "district_id": 5,
    "state_id": 1
  },
  {
   "mandal_id": 346,
    "mandal_name": "BollaPalli",
    "constituency_id": 99,
    "district_id": 5,
    "state_id": 1
  },
  {
   "mandal_id": 349,
    "mandal_name": "Savalyapuram",
    "constituency_id": 99,
    "district_id": 5,
    "state_id": 1
  },
  {
   "mandal_id": 347,
    "mandal_name": "Epuru",
    "constituency_id": 99,
    "district_id": 5,
    "state_id": 1
  },
  {
   "mandal_id": 350,
    "mandal_name": "Vinukonda",
    "constituency_id": 99,
    "district_id": 5,
    "state_id": 1
  },
  {
   "mandal_id": 351,
    "mandal_name": "Dachepalli",
    "constituency_id": 100,
    "district_id": 5,
    "state_id": 1
  },
  {
   "mandal_id": 352,
    "mandal_name": "Gurajala",
    "constituency_id": 100,
    "district_id": 5,
    "state_id": 1
  },
  {
   "mandal_id": 353,
    "mandal_name": "Machavaram",
    "constituency_id": 100,
    "district_id": 5,
    "state_id": 1
  },
  {
   "mandal_id": 354,
    "mandal_name": "Piduguralla",
    "constituency_id": 100,
    "district_id": 5,
    "state_id": 1
  },
  {
   "mandal_id": 355,
    "mandal_name": "Durgi",
    "constituency_id": 101,
    "district_id": 5,
    "state_id": 1
  },
  {
   "mandal_id": 356,
    "mandal_name": "Karampudi",
    "constituency_id": 101,
    "district_id": 5,
    "state_id": 1
  },
  {
   "mandal_id": 357,
    "mandal_name": "Macharla",
    "constituency_id": 101,
    "district_id": 5,
    "state_id": 1
  },
  {
   "mandal_id": 358,
    "mandal_name": "Rentachintala",
    "constituency_id": 101,
    "district_id": 5,
    "state_id": 1
  },
  {
   "mandal_id": 359,
    "mandal_name": "Veldurthi",
    "constituency_id": 101,
    "district_id": 5,
    "state_id": 1
  },
  {
   "mandal_id": 360,
    "mandal_name": "Dornala",
    "constituency_id": 102,
    "district_id": 17,
    "state_id": 1
  },
  {
   "mandal_id": 361,
    "mandal_name": "Peddaraveedu",
    "constituency_id": 102,
    "district_id": 17,
    "state_id": 1
  },
  {
   "mandal_id": 362,
    "mandal_name": "PullalaCheruvu",
    "constituency_id": 102,
    "district_id": 17,
    "state_id": 1
  },
  {
   "mandal_id": 363,
    "mandal_name": "Tripurantakam",
    "constituency_id": 102,
    "district_id": 17,
    "state_id": 1
  },
  {
   "mandal_id": 364,
    "mandal_name": "Yerragondapalem",
    "constituency_id": 102,
    "district_id": 17,
    "state_id": 1
  },
  {
   "mandal_id": 368,
    "mandal_name": "Mundlamuru",
    "constituency_id": 103,
    "district_id": 17,
    "state_id": 1
  },
  {
   "mandal_id": 365,
    "mandal_name": "Darsi",
    "constituency_id": 103,
    "district_id": 17,
    "state_id": 1
  },
  {
   "mandal_id": 366,
    "mandal_name": "Donakonda",
    "constituency_id": 103,
    "district_id": 17,
    "state_id": 1
  },
  {
   "mandal_id": 367,
    "mandal_name": "Kurichedu",
    "constituency_id": 103,
    "district_id": 17,
    "state_id": 1
  },
  {
   "mandal_id": 369,
    "mandal_name": "Talluru",
    "constituency_id": 103,
    "district_id": 17,
    "state_id": 1
  },
  {
   "mandal_id": 373,
    "mandal_name": "Maruturu",
    "constituency_id": 104,
    "district_id": 17,
    "state_id": 1
  },
  {
   "mandal_id": 370,
    "mandal_name": "ChinaGanjam",
    "constituency_id": 104,
    "district_id": 17,
    "state_id": 1
  },
  {
   "mandal_id": 371,
    "mandal_name": "Inkole",
    "constituency_id": 104,
    "district_id": 17,
    "state_id": 1
  },
  {
   "mandal_id": 372,
    "mandal_name": "Karamchedu",
    "constituency_id": 104,
    "district_id": 17,
    "state_id": 1
  },
  {
   "mandal_id": 374,
    "mandal_name": "PARCHUR",
    "constituency_id": 104,
    "district_id": 17,
    "state_id": 1
  },
  {
   "mandal_id": 375,
    "mandal_name": "Yaddanapudi",
    "constituency_id": 104,
    "district_id": 17,
    "state_id": 1
  },
  {
   "mandal_id": 377,
    "mandal_name": "Ballikurava",
    "constituency_id": 105,
    "district_id": 17,
    "state_id": 1
  },
  {
   "mandal_id": 378,
    "mandal_name": "J.Panguluru",
    "constituency_id": 105,
    "district_id": 17,
    "state_id": 1
  },
  {
   "mandal_id": 376,
    "mandal_name": "Addanki",
    "constituency_id": 105,
    "district_id": 17,
    "state_id": 1
  },
  {
   "mandal_id": 379,
    "mandal_name": "Korishpadu",
    "constituency_id": 105,
    "district_id": 17,
    "state_id": 1
  },
  {
   "mandal_id": 380,
    "mandal_name": "Santhamagalur",
    "constituency_id": 105,
    "district_id": 17,
    "state_id": 1
  },
  {
   "mandal_id": 381,
    "mandal_name": "Cheerala",
    "constituency_id": 106,
    "district_id": 17,
    "state_id": 1
  },
  {
   "mandal_id": 382,
    "mandal_name": "Vetapalem",
    "constituency_id": 106,
    "district_id": 17,
    "state_id": 1
  },
  {
   "mandal_id": 383,
    "mandal_name": "Cheemakurthi",
    "constituency_id": 107,
    "district_id": 17,
    "state_id": 1
  },
  {
   "mandal_id": 384,
    "mandal_name": "Maddipadu",
    "constituency_id": 107,
    "district_id": 17,
    "state_id": 1
  },
  {
   "mandal_id": 385,
    "mandal_name": "N.G.Padu",
    "constituency_id": 107,
    "district_id": 17,
    "state_id": 1
  },
  {
   "mandal_id": 386,
    "mandal_name": "S.N.Padu",
    "constituency_id": 107,
    "district_id": 17,
    "state_id": 1
  },
  {
   "mandal_id": 387,
    "mandal_name": "Kothapatnam",
    "constituency_id": 108,
    "district_id": 17,
    "state_id": 1
  },
  {
   "mandal_id": 388,
    "mandal_name": "Ongole",
    "constituency_id": 108,
    "district_id": 17,
    "state_id": 1
  },
  {
   "mandal_id": 389,
    "mandal_name": "Gudlur",
    "constituency_id": 109,
    "district_id": 17,
    "state_id": 1
  },
  {
   "mandal_id": 390,
    "mandal_name": "Kandukur",
    "constituency_id": 109,
    "district_id": 17,
    "state_id": 1
  },
  {
   "mandal_id": 391,
    "mandal_name": "Lingasamudram",
    "constituency_id": 109,
    "district_id": 17,
    "state_id": 1
  },
  {
   "mandal_id": 392,
    "mandal_name": "ULAVAPADU",
    "constituency_id": 109,
    "district_id": 17,
    "state_id": 1
  },
  {
   "mandal_id": 393,
    "mandal_name": "VOLETIVARIPALEM",
    "constituency_id": 109,
    "district_id": 17,
    "state_id": 1
  },
  {
   "mandal_id": 394,
    "mandal_name": "Jarugumalli",
    "constituency_id": 110,
    "district_id": 17,
    "state_id": 1
  },
  {
   "mandal_id": 395,
    "mandal_name": "Kondapi",
    "constituency_id": 110,
    "district_id": 17,
    "state_id": 1
  },
  {
   "mandal_id": 396,
    "mandal_name": "Marripudi",
    "constituency_id": 110,
    "district_id": 17,
    "state_id": 1
  },
  {
   "mandal_id": 397,
    "mandal_name": "Ponnaluru",
    "constituency_id": 110,
    "district_id": 17,
    "state_id": 1
  },
  {
   "mandal_id": 398,
    "mandal_name": "Singarayakonda",
    "constituency_id": 110,
    "district_id": 17,
    "state_id": 1
  },
  {
   "mandal_id": 399,
    "mandal_name": "Tanguturu",
    "constituency_id": 110,
    "district_id": 17,
    "state_id": 1
  },
  {
   "mandal_id": 400,
    "mandal_name": "Konakonamitla",
    "constituency_id": 111,
    "district_id": 17,
    "state_id": 1
  },
  {
   "mandal_id": 401,
    "mandal_name": "Markapuram",
    "constituency_id": 111,
    "district_id": 17,
    "state_id": 1
  },
  {
   "mandal_id": 402,
    "mandal_name": "Podili",
    "constituency_id": 111,
    "district_id": 17,
    "state_id": 1
  },
  {
   "mandal_id": 403,
    "mandal_name": "Tarlupadu",
    "constituency_id": 111,
    "district_id": 17,
    "state_id": 1
  },
  {
   "mandal_id": 404,
    "mandal_name": "Ardhaveedu",
    "constituency_id": 112,
    "district_id": 17,
    "state_id": 1
  },
  {
   "mandal_id": 405,
    "mandal_name": "BestawaripetA",
    "constituency_id": 112,
    "district_id": 17,
    "state_id": 1
  },
  {
   "mandal_id": 406,
    "mandal_name": "Cumbum",
    "constituency_id": 112,
    "district_id": 17,
    "state_id": 1
  },
  {
   "mandal_id": 407,
    "mandal_name": "Giddalur",
    "constituency_id": 112,
    "district_id": 17,
    "state_id": 1
  },
  {
   "mandal_id": 408,
    "mandal_name": "KOMAROLU",
    "constituency_id": 112,
    "district_id": 17,
    "state_id": 1
  },
  {
   "mandal_id": 409,
    "mandal_name": "Racharla",
    "constituency_id": 112,
    "district_id": 17,
    "state_id": 1
  },
  {
   "mandal_id": 414,
    "mandal_name": "Pamur",
    "constituency_id": 113,
    "district_id": 17,
    "state_id": 1
  },
  {
   "mandal_id": 415,
    "mandal_name": "Veligandla",
    "constituency_id": 113,
    "district_id": 17,
    "state_id": 1
  },
  {
   "mandal_id": 413,
    "mandal_name": "P.C.Palli",
    "constituency_id": 113,
    "district_id": 17,
    "state_id": 1
  },
  {
   "mandal_id": 412,
    "mandal_name": "Kanigiri",
    "constituency_id": 113,
    "district_id": 17,
    "state_id": 1
  },
  {
   "mandal_id": 411,
    "mandal_name": "H.M.Padu",
    "constituency_id": 113,
    "district_id": 17,
    "state_id": 1
  },
  {
   "mandal_id": 410,
    "mandal_name": "C.S.Puram",
    "constituency_id": 113,
    "district_id": 17,
    "state_id": 1
  },
  {
   "mandal_id": 419,
    "mandal_name": "Dagdarti",
    "constituency_id": 114,
    "district_id": 15,
    "state_id": 1
  },
  {
   "mandal_id": 420,
    "mandal_name": "Kavali",
    "constituency_id": 114,
    "district_id": 15,
    "state_id": 1
  },
  {
   "mandal_id": 416,
    "mandal_name": 424,
    "constituency_id": 114,
    "district_id": 15,
    "state_id": 1
  },
  {
   "mandal_id": 417,
    "mandal_name": "Allur",
    "constituency_id": 114,
    "district_id": 15,
    "state_id": 1
  },
  {
   "mandal_id": 421,
    "mandal_name": "",
    "constituency_id": 114,
    "district_id": 15,
    "state_id": 1
  },
  {
   "mandal_id": 418,
    "mandal_name": "Bogolu",
    "constituency_id": 114,
    "district_id": 15,
    "state_id": 1
  },
  {
   "mandal_id": 423,
    "mandal_name": "Anantasagaram",
    "constituency_id": 115,
    "district_id": 15,
    "state_id": 1
  },
  {
   "mandal_id": 422,
    "mandal_name": "A.S.Pet",
    "constituency_id": 115,
    "district_id": 15,
    "state_id": 1
  },
  {
   "mandal_id": 427,
    "mandal_name": "Sangam",
    "constituency_id": 115,
    "district_id": 15,
    "state_id": 1
  },
  {
   "mandal_id": 428,
    "mandal_name": "",
    "constituency_id": 115,
    "district_id": 15,
    "state_id": 1
  },
  {
   "mandal_id": 426,
    "mandal_name": "Marripadu",
    "constituency_id": 115,
    "district_id": 15,
    "state_id": 1
  },
  {
   "mandal_id": 425,
    "mandal_name": "Chejarla",
    "constituency_id": 115,
    "district_id": 15,
    "state_id": 1
  },
  {
   "mandal_id": 424,
    "mandal_name": "Atmakuru",
    "constituency_id": 115,
    "district_id": 15,
    "state_id": 1
  },
  {
   "mandal_id": 431,
    "mandal_name": "Kodavaluru",
    "constituency_id": 116,
    "district_id": 15,
    "state_id": 1
  },
  {
   "mandal_id": 433,
    "mandal_name": "Vidavalur",
    "constituency_id": 116,
    "district_id": 15,
    "state_id": 1
  },
  {
   "mandal_id": 432,
    "mandal_name": "Kovur",
    "constituency_id": 116,
    "district_id": 15,
    "state_id": 1
  },
  {
   "mandal_id": 429,
    "mandal_name": "Butchireddipalem",
    "constituency_id": 116,
    "district_id": 15,
    "state_id": 1
  },
  {
   "mandal_id": 430,
    "mandal_name": "Indukurpet",
    "constituency_id": 116,
    "district_id": 15,
    "state_id": 1
  },
  {
   "mandal_id": 434,
    "mandal_name": "Nellore",
    "constituency_id": 117,
    "district_id": 15,
    "state_id": 1
  },
  {
   "mandal_id": 435,
    "mandal_name": "Nellore",
    "constituency_id": 118,
    "district_id": 15,
    "state_id": 1
  },
  {
   "mandal_id": 436,
    "mandal_name": "",
    "constituency_id": 118,
    "district_id": 15,
    "state_id": 1
  },
  {
   "mandal_id": 440,
    "mandal_name": "Thotapalli Guduru",
    "constituency_id": 119,
    "district_id": 15,
    "state_id": 1
  },
  {
   "mandal_id": 439,
    "mandal_name": "Podalakuru",
    "constituency_id": 119,
    "district_id": 15,
    "state_id": 1
  },
  {
   "mandal_id": 438,
    "mandal_name": "Muthukuru",
    "constituency_id": 119,
    "district_id": 15,
    "state_id": 1
  },
  {
   "mandal_id": 437,
    "mandal_name": "Manubolu",
    "constituency_id": 119,
    "district_id": 15,
    "state_id": 1
  },
  {
   "mandal_id": 441,
    "mandal_name": "Venkatachalam",
    "constituency_id": 119,
    "district_id": 15,
    "state_id": 1
  },
  {
   "mandal_id": 444,
    "mandal_name": "Guduru",
    "constituency_id": 120,
    "district_id": 15,
    "state_id": 1
  },
  {
   "mandal_id": 442,
    "mandal_name": "Chillakuru",
    "constituency_id": 120,
    "district_id": 15,
    "state_id": 1
  },
  {
   "mandal_id": 446,
    "mandal_name": "Vakadu",
    "constituency_id": 120,
    "district_id": 15,
    "state_id": 1
  },
  {
   "mandal_id": 445,
    "mandal_name": "KOTA",
    "constituency_id": 120,
    "district_id": 15,
    "state_id": 1
  },
  {
   "mandal_id": 443,
    "mandal_name": "Chittamuru",
    "constituency_id": 120,
    "district_id": 15,
    "state_id": 1
  },
  {
   "mandal_id": 450,
    "mandal_name": "Ojili",
    "constituency_id": 121,
    "district_id": 15,
    "state_id": 1
  },
  {
   "mandal_id": 447,
    "mandal_name": 322,
    "constituency_id": 121,
    "district_id": 15,
    "state_id": 1
  },
  {
   "mandal_id": 448,
    "mandal_name": "Doravarisatram",
    "constituency_id": 121,
    "district_id": 15,
    "state_id": 1
  },
  {
   "mandal_id": 449,
    "mandal_name": "Naidupet",
    "constituency_id": 121,
    "district_id": 15,
    "state_id": 1
  },
  {
   "mandal_id": 451,
    "mandal_name": "Pellakuru",
    "constituency_id": 121,
    "district_id": 15,
    "state_id": 1
  },
  {
   "mandal_id": 452,
    "mandal_name": "Sullurupet",
    "constituency_id": 121,
    "district_id": 15,
    "state_id": 1
  },
  {
   "mandal_id": 453,
    "mandal_name": "Tada",
    "constituency_id": 121,
    "district_id": 15,
    "state_id": 1
  },
  {
   "mandal_id": 456,
    "mandal_name": "Kaluvoya",
    "constituency_id": 122,
    "district_id": 15,
    "state_id": 1
  },
  {
   "mandal_id": 455,
    "mandal_name": "Dakkili",
    "constituency_id": 122,
    "district_id": 15,
    "state_id": 1
  },
  {
   "mandal_id": 454,
    "mandal_name": "Balayapalli",
    "constituency_id": 122,
    "district_id": 15,
    "state_id": 1
  },
  {
   "mandal_id": 459,
    "mandal_name": "Venkatagiri",
    "constituency_id": 122,
    "district_id": 15,
    "state_id": 1
  },
  {
   "mandal_id": 458,
    "mandal_name": "Sydapuram",
    "constituency_id": 122,
    "district_id": 15,
    "state_id": 1
  },
  {
   "mandal_id": 457,
    "mandal_name": "Rapur",
    "constituency_id": 122,
    "district_id": 15,
    "state_id": 1
  },
  {
   "mandal_id": 467,
    "mandal_name": "Vinjamur",
    "constituency_id": 123,
    "district_id": 15,
    "state_id": 1
  },
  {
   "mandal_id": 461,
    "mandal_name": "Jaldanki",
    "constituency_id": 123,
    "district_id": 15,
    "state_id": 1
  },
  {
   "mandal_id": 462,
    "mandal_name": "Kaligiri",
    "constituency_id": 123,
    "district_id": 15,
    "state_id": 1
  },
  {
   "mandal_id": 460,
    "mandal_name": "Duttalur",
    "constituency_id": 123,
    "district_id": 15,
    "state_id": 1
  },
  {
   "mandal_id": 466,
    "mandal_name": "VARIKUNTAPADU",
    "constituency_id": 123,
    "district_id": 15,
    "state_id": 1
  },
  {
   "mandal_id": 465,
    "mandal_name": "Udayagiri",
    "constituency_id": 123,
    "district_id": 15,
    "state_id": 1
  },
  {
   "mandal_id": 464,
    "mandal_name": "Seetharamapuram",
    "constituency_id": 123,
    "district_id": 15,
    "state_id": 1
  },
  {
   "mandal_id": 463,
    "mandal_name": "Kondapuram",
    "constituency_id": 123,
    "district_id": 15,
    "state_id": 1
  },
  {
   "mandal_id": 474,
    "mandal_name": "S.A.K.N",
    "constituency_id": 124,
    "district_id": 7,
    "state_id": 1
  },
  {
   "mandal_id": 469,
    "mandal_name": "B KODUR",
    "constituency_id": 124,
    "district_id": 7,
    "state_id": 1
  },
  {
   "mandal_id": 468,
    "mandal_name": "Atlur",
    "constituency_id": 124,
    "district_id": 7,
    "state_id": 1
  },
  {
   "mandal_id": 470,
    "mandal_name": "BADVEL",
    "constituency_id": 124,
    "district_id": 7,
    "state_id": 1
  },
  {
   "mandal_id": 471,
    "mandal_name": "Gopavaram",
    "constituency_id": 124,
    "district_id": 7,
    "state_id": 1
  },
  {
   "mandal_id": 472,
    "mandal_name": "KALASAPADU",
    "constituency_id": 124,
    "district_id": 7,
    "state_id": 1
  },
  {
   "mandal_id": 473,
    "mandal_name": "Porumamilla",
    "constituency_id": 124,
    "district_id": 7,
    "state_id": 1
  },
  {
   "mandal_id": 478,
    "mandal_name": "Sundupalli",
    "constituency_id": 125,
    "district_id": 7,
    "state_id": 1
  },
  {
   "mandal_id": 480,
    "mandal_name": "Vontimitta",
    "constituency_id": 125,
    "district_id": 7,
    "state_id": 1
  },
  {
   "mandal_id": 481,
    "mandal_name": "",
    "constituency_id": 125,
    "district_id": 7,
    "state_id": 1
  },
  {
   "mandal_id": 475,
    "mandal_name": "Nandalur",
    "constituency_id": 125,
    "district_id": 7,
    "state_id": 1
  },
  {
   "mandal_id": 476,
    "mandal_name": "Rajampet",
    "constituency_id": 125,
    "district_id": 7,
    "state_id": 1
  },
  {
   "mandal_id": 477,
    "mandal_name": "Sidhout",
    "constituency_id": 125,
    "district_id": 7,
    "state_id": 1
  },
  {
   "mandal_id": 479,
    "mandal_name": "Veerballi",
    "constituency_id": 125,
    "district_id": 7,
    "state_id": 1
  },
  {
   "mandal_id": 482,
    "mandal_name": "KADAPA",
    "constituency_id": 126,
    "district_id": 7,
    "state_id": 1
  },
  {
   "mandal_id": 487,
    "mandal_name": "Pullampet",
    "constituency_id": 127,
    "district_id": 7,
    "state_id": 1
  },
  {
   "mandal_id": 486,
    "mandal_name": "Penagalur",
    "constituency_id": 127,
    "district_id": 7,
    "state_id": 1
  },
  {
   "mandal_id": 483,
    "mandal_name": "Chitvel",
    "constituency_id": 127,
    "district_id": 7,
    "state_id": 1
  },
  {
   "mandal_id": 484,
    "mandal_name": "Kodur",
    "constituency_id": 127,
    "district_id": 7,
    "state_id": 1
  },
  {
   "mandal_id": 485,
    "mandal_name": "ObulavariPalli",
    "constituency_id": 127,
    "district_id": 7,
    "state_id": 1
  },
  {
   "mandal_id": 492,
    "mandal_name": "Rayachoti",
    "constituency_id": 128,
    "district_id": 7,
    "state_id": 1
  },
  {
   "mandal_id": 493,
    "mandal_name": "Sambepalli",
    "constituency_id": 128,
    "district_id": 7,
    "state_id": 1
  },
  {
   "mandal_id": 488,
    "mandal_name": "Chinna Mandem",
    "constituency_id": 128,
    "district_id": 7,
    "state_id": 1
  },
  {
   "mandal_id": 489,
    "mandal_name": "Galividu",
    "constituency_id": 128,
    "district_id": 7,
    "state_id": 1
  },
  {
   "mandal_id": 490,
    "mandal_name": "LAKKIREDDYPALLE",
    "constituency_id": 128,
    "district_id": 7,
    "state_id": 1
  },
  {
   "mandal_id": 491,
    "mandal_name": "Ramapuram",
    "constituency_id": 128,
    "district_id": 7,
    "state_id": 1
  },
  {
   "mandal_id": 497,
    "mandal_name": "Simhadripuram",
    "constituency_id": 129,
    "district_id": 7,
    "state_id": 1
  },
  {
   "mandal_id": 495,
    "mandal_name": "Lingala",
    "constituency_id": 129,
    "district_id": 7,
    "state_id": 1
  },
  {
   "mandal_id": 494,
    "mandal_name": "Chakrayapet",
    "constituency_id": 129,
    "district_id": 7,
    "state_id": 1
  },
  {
   "mandal_id": 501,
    "mandal_name": "",
    "constituency_id": 129,
    "district_id": 7,
    "state_id": 1
  },
  {
   "mandal_id": 500,
    "mandal_name": "Vemula",
    "constituency_id": 129,
    "district_id": 7,
    "state_id": 1
  },
  {
   "mandal_id": 499,
    "mandal_name": "Vempalli",
    "constituency_id": 129,
    "district_id": 7,
    "state_id": 1
  },
  {
   "mandal_id": 498,
    "mandal_name": "Thondur",
    "constituency_id": 129,
    "district_id": 7,
    "state_id": 1
  },
  {
   "mandal_id": 496,
    "mandal_name": "Pulivendla",
    "constituency_id": 129,
    "district_id": 7,
    "state_id": 1
  },
  {
   "mandal_id": 507,
    "mandal_name": "VEERAPUNAYANI PALLE",
    "constituency_id": 130,
    "district_id": 7,
    "state_id": 1
  },
  {
   "mandal_id": 505,
    "mandal_name": "Pendlimarri",
    "constituency_id": 130,
    "district_id": 7,
    "state_id": 1
  },
  {
   "mandal_id": 504,
    "mandal_name": "Kamalapuram",
    "constituency_id": 130,
    "district_id": 7,
    "state_id": 1
  },
  {
   "mandal_id": 503,
    "mandal_name": "ChintKommaDinne",
    "constituency_id": 130,
    "district_id": 7,
    "state_id": 1
  },
  {
   "mandal_id": 502,
    "mandal_name": "Chennur",
    "constituency_id": 130,
    "district_id": 7,
    "state_id": 1
  },
  {
   "mandal_id": 506,
    "mandal_name": "Valluru",
    "constituency_id": 130,
    "district_id": 7,
    "state_id": 1
  },
  {
   "mandal_id": 510,
    "mandal_name": "Muddanooru",
    "constituency_id": 131,
    "district_id": 7,
    "state_id": 1
  },
  {
   "mandal_id": 509,
    "mandal_name": "Kondapuram",
    "constituency_id": 131,
    "district_id": 7,
    "state_id": 1
  },
  {
   "mandal_id": 508,
    "mandal_name": "Jammalamadugu",
    "constituency_id": 131,
    "district_id": 7,
    "state_id": 1
  },
  {
   "mandal_id": 512,
    "mandal_name": "Peddamudiyam",
    "constituency_id": 131,
    "district_id": 7,
    "state_id": 1
  },
  {
   "mandal_id": 511,
    "mandal_name": "Mylavaram",
    "constituency_id": 131,
    "district_id": 7,
    "state_id": 1
  },
  {
   "mandal_id": 513,
    "mandal_name": "Yerraguntla",
    "constituency_id": 131,
    "district_id": 7,
    "state_id": 1
  },
  {
   "mandal_id": 514,
    "mandal_name": "Prodduturu",
    "constituency_id": 132,
    "district_id": 7,
    "state_id": 1
  },
  {
   "mandal_id": 515,
    "mandal_name": "Rajupalem",
    "constituency_id": 132,
    "district_id": 7,
    "state_id": 1
  },
  {
   "mandal_id": 519,
    "mandal_name": "Kazipet",
    "constituency_id": 133,
    "district_id": 7,
    "state_id": 1
  },
  {
   "mandal_id": 516,
    "mandal_name": "B Matam",
    "constituency_id": 133,
    "district_id": 7,
    "state_id": 1
  },
  {
   "mandal_id": 517,
    "mandal_name": "Chapadu",
    "constituency_id": 133,
    "district_id": 7,
    "state_id": 1
  },
  {
   "mandal_id": 518,
    "mandal_name": "DUVVURU",
    "constituency_id": 133,
    "district_id": 7,
    "state_id": 1
  },
  {
   "mandal_id": 520,
    "mandal_name": "Mydukur",
    "constituency_id": 133,
    "district_id": 7,
    "state_id": 1
  },
  {
   "mandal_id": 524,
    "mandal_name": "Rudhravaram",
    "constituency_id": 134,
    "district_id": 11,
    "state_id": 1
  },
  {
   "mandal_id": 525,
    "mandal_name": "Shirivella",
    "constituency_id": 134,
    "district_id": 11,
    "state_id": 1
  },
  {
   "mandal_id": 526,
    "mandal_name": "Uyyalavada",
    "constituency_id": 134,
    "district_id": 11,
    "state_id": 1
  },
  {
   "mandal_id": 521,
    "mandal_name": "Allagadda",
    "constituency_id": 134,
    "district_id": 11,
    "state_id": 1
  },
  {
   "mandal_id": 522,
    "mandal_name": "Chagalamarri",
    "constituency_id": 134,
    "district_id": 11,
    "state_id": 1
  },
  {
   "mandal_id": 523,
    "mandal_name": "Dornipadu",
    "constituency_id": 134,
    "district_id": 11,
    "state_id": 1
  },
  {
   "mandal_id": 531,
    "mandal_name": "Velugodu",
    "constituency_id": 135,
    "district_id": 11,
    "state_id": 1
  },
  {
   "mandal_id": 527,
    "mandal_name": "Atmakuru",
    "constituency_id": 135,
    "district_id": 11,
    "state_id": 1
  },
  {
   "mandal_id": 528,
    "mandal_name": "Bandi Atmakuru",
    "constituency_id": 135,
    "district_id": 11,
    "state_id": 1
  },
  {
   "mandal_id": 529,
    "mandal_name": "Mahanandi",
    "constituency_id": 135,
    "district_id": 11,
    "state_id": 1
  },
  {
   "mandal_id": 530,
    "mandal_name": "SRISAILAM",
    "constituency_id": 135,
    "district_id": 11,
    "state_id": 1
  },
  {
   "mandal_id": 533,
    "mandal_name": "Kothapalle",
    "constituency_id": 136,
    "district_id": 11,
    "state_id": 1
  },
  {
   "mandal_id": 532,
    "mandal_name": "Jupadubangla",
    "constituency_id": 136,
    "district_id": 11,
    "state_id": 1
  },
  {
   "mandal_id": 535,
    "mandal_name": "Nandikotkuru",
    "constituency_id": 136,
    "district_id": 11,
    "state_id": 1
  },
  {
   "mandal_id": 534,
    "mandal_name": "Miduturu",
    "constituency_id": 136,
    "district_id": 11,
    "state_id": 1
  },
  {
   "mandal_id": 537,
    "mandal_name": "PamulaPadu",
    "constituency_id": 136,
    "district_id": 11,
    "state_id": 1
  },
  {
   "mandal_id": 536,
    "mandal_name": "Pagidayala",
    "constituency_id": 136,
    "district_id": 11,
    "state_id": 1
  },
  {
   "mandal_id": 538,
    "mandal_name": "KURNOOL",
    "constituency_id": 137,
    "district_id": 11,
    "state_id": 1
  },
  {
   "mandal_id": 539,
    "mandal_name": "GadiEmula",
    "constituency_id": 138,
    "district_id": 11,
    "state_id": 1
  },
  {
   "mandal_id": 543,
    "mandal_name": "PANYAM",
    "constituency_id": 138,
    "district_id": 11,
    "state_id": 1
  },
  {
   "mandal_id": 542,
    "mandal_name": "Orvakallu",
    "constituency_id": 138,
    "district_id": 11,
    "state_id": 1
  },
  {
   "mandal_id": 541,
    "mandal_name": "Kurnoolu",
    "constituency_id": 138,
    "district_id": 11,
    "state_id": 1
  },
  {
   "mandal_id": 540,
    "mandal_name": "KALLUR",
    "constituency_id": 138,
    "district_id": 11,
    "state_id": 1
  },
  {
   "mandal_id": 544,
    "mandal_name": "Gospadu",
    "constituency_id": 139,
    "district_id": 11,
    "state_id": 1
  },
  {
   "mandal_id": 545,
    "mandal_name": "NANDYAL",
    "constituency_id": 139,
    "district_id": 11,
    "state_id": 1
  },
  {
   "mandal_id": 547,
    "mandal_name": "KOILKUNTLA",
    "constituency_id": 140,
    "district_id": 11,
    "state_id": 1
  },
  {
   "mandal_id": 548,
    "mandal_name": "KOLIMIGUNDLA",
    "constituency_id": 140,
    "district_id": 11,
    "state_id": 1
  },
  {
   "mandal_id": 549,
    "mandal_name": "OWK",
    "constituency_id": 140,
    "district_id": 11,
    "state_id": 1
  },
  {
   "mandal_id": 546,
    "mandal_name": "BANAGANAPALLI",
    "constituency_id": 140,
    "district_id": 11,
    "state_id": 1
  },
  {
   "mandal_id": 550,
    "mandal_name": "SANJAMALA",
    "constituency_id": 140,
    "district_id": 11,
    "state_id": 1
  },
  {
   "mandal_id": 552,
    "mandal_name": "Don",
    "constituency_id": 141,
    "district_id": 11,
    "state_id": 1
  },
  {
   "mandal_id": 551,
    "mandal_name": "Betancharla",
    "constituency_id": 141,
    "district_id": 11,
    "state_id": 1
  },
  {
   "mandal_id": 553,
    "mandal_name": "Pyapili",
    "constituency_id": 141,
    "district_id": 11,
    "state_id": 1
  },
  {
   "mandal_id": 557,
    "mandal_name": "Turpu Maddikera",
    "constituency_id": 142,
    "district_id": 11,
    "state_id": 1
  },
  {
   "mandal_id": 554,
    "mandal_name": "Krishnagiri",
    "constituency_id": 142,
    "district_id": 11,
    "state_id": 1
  },
  {
   "mandal_id": 555,
    "mandal_name": "Pathikonda",
    "constituency_id": 142,
    "district_id": 11,
    "state_id": 1
  },
  {
   "mandal_id": 556,
    "mandal_name": "Tuggali",
    "constituency_id": 142,
    "district_id": 11,
    "state_id": 1
  },
  {
   "mandal_id": 558,
    "mandal_name": "Veldurthi",
    "constituency_id": 142,
    "district_id": 11,
    "state_id": 1
  },
  {
   "mandal_id": 560,
    "mandal_name": "Guduru",
    "constituency_id": 143,
    "district_id": 11,
    "state_id": 1
  },
  {
   "mandal_id": 559,
    "mandal_name": "C.Belagal",
    "constituency_id": 143,
    "district_id": 11,
    "state_id": 1
  },
  {
   "mandal_id": 561,
    "mandal_name": "Kodumuru",
    "constituency_id": 143,
    "district_id": 11,
    "state_id": 1
  },
  {
   "mandal_id": 562,
    "mandal_name": "Kurnool",
    "constituency_id": 143,
    "district_id": 11,
    "state_id": 1
  },
  {
   "mandal_id": 563,
    "mandal_name": "Gonegandla",
    "constituency_id": 144,
    "district_id": 11,
    "state_id": 1
  },
  {
   "mandal_id": 565,
    "mandal_name": "Yemmiganur",
    "constituency_id": 144,
    "district_id": 11,
    "state_id": 1
  },
  {
   "mandal_id": 564,
    "mandal_name": "Nandavaram",
    "constituency_id": 144,
    "district_id": 11,
    "state_id": 1
  },
  {
   "mandal_id": 568,
    "mandal_name": "Mantralayam",
    "constituency_id": 145,
    "district_id": 11,
    "state_id": 1
  },
  {
   "mandal_id": 569,
    "mandal_name": "Peddakduburu",
    "constituency_id": 145,
    "district_id": 11,
    "state_id": 1
  },
  {
   "mandal_id": 567,
    "mandal_name": "Kowthalam",
    "constituency_id": 145,
    "district_id": 11,
    "state_id": 1
  },
  {
   "mandal_id": 566,
    "mandal_name": "Kosigi",
    "constituency_id": 145,
    "district_id": 11,
    "state_id": 1
  },
  {
   "mandal_id": 570,
    "mandal_name": "Adoni",
    "constituency_id": 146,
    "district_id": 11,
    "state_id": 1
  },
  {
   "mandal_id": 573,
    "mandal_name": "ChippaGiri",
    "constituency_id": 147,
    "district_id": 11,
    "state_id": 1
  },
  {
   "mandal_id": 572,
    "mandal_name": "Aspari",
    "constituency_id": 147,
    "district_id": 11,
    "state_id": 1
  },
  {
   "mandal_id": 571,
    "mandal_name": "Aaluru",
    "constituency_id": 147,
    "district_id": 11,
    "state_id": 1
  },
  {
   "mandal_id": 576,
    "mandal_name": "Holgunda",
    "constituency_id": 147,
    "district_id": 11,
    "state_id": 1
  },
  {
   "mandal_id": 575,
    "mandal_name": "Halharvi",
    "constituency_id": 147,
    "district_id": 11,
    "state_id": 1
  },
  {
   "mandal_id": 574,
    "mandal_name": "Devankonda",
    "constituency_id": 147,
    "district_id": 11,
    "state_id": 1
  },
  {
   "mandal_id": 577,
    "mandal_name": "Bommanahal",
    "constituency_id": 148,
    "district_id": 2,
    "state_id": 1
  },
  {
   "mandal_id": 581,
    "mandal_name": "Rayadurgam",
    "constituency_id": 148,
    "district_id": 2,
    "state_id": 1
  },
  {
   "mandal_id": 580,
    "mandal_name": "Kanekal",
    "constituency_id": 148,
    "district_id": 2,
    "state_id": 1
  },
  {
   "mandal_id": 579,
    "mandal_name": "GummaGatta",
    "constituency_id": 148,
    "district_id": 2,
    "state_id": 1
  },
  {
   "mandal_id": 578,
    "mandal_name": "D.Hirehal",
    "constituency_id": 148,
    "district_id": 2,
    "state_id": 1
  },
  {
   "mandal_id": 585,
    "mandal_name": "Vajrakruru",
    "constituency_id": 149,
    "district_id": 2,
    "state_id": 1
  },
  {
   "mandal_id": 584,
    "mandal_name": "Uravakonda",
    "constituency_id": 149,
    "district_id": 2,
    "state_id": 1
  },
  {
   "mandal_id": 583,
    "mandal_name": "Kuderu",
    "constituency_id": 149,
    "district_id": 2,
    "state_id": 1
  },
  {
   "mandal_id": 582,
    "mandal_name": "Beluguppa",
    "constituency_id": 149,
    "district_id": 2,
    "state_id": 1
  },
  {
   "mandal_id": 586,
    "mandal_name": "Vidapa Nakallu",
    "constituency_id": 149,
    "district_id": 2,
    "state_id": 1
  },
  {
   "mandal_id": 588,
    "mandal_name": "Guntakallu",
    "constituency_id": 150,
    "district_id": 2,
    "state_id": 1
  },
  {
   "mandal_id": 587,
    "mandal_name": "Gooty",
    "constituency_id": 150,
    "district_id": 2,
    "state_id": 1
  },
  {
   "mandal_id": 589,
    "mandal_name": "Pamidi",
    "constituency_id": 150,
    "district_id": 2,
    "state_id": 1
  },
  {
   "mandal_id": 591,
    "mandal_name": "PeddaVadugur",
    "constituency_id": 151,
    "district_id": 2,
    "state_id": 1
  },
  {
   "mandal_id": 593,
    "mandal_name": "Yadiki",
    "constituency_id": 151,
    "district_id": 2,
    "state_id": 1
  },
  {
   "mandal_id": 592,
    "mandal_name": "Tadiparti",
    "constituency_id": 151,
    "district_id": 2,
    "state_id": 1
  },
  {
   "mandal_id": 590,
    "mandal_name": "Peddapappuru",
    "constituency_id": 151,
    "district_id": 2,
    "state_id": 1
  },
  {
   "mandal_id": 595,
    "mandal_name": "GarlaDinne",
    "constituency_id": 152,
    "district_id": 2,
    "state_id": 1
  },
  {
   "mandal_id": 599,
    "mandal_name": "Yallanooru",
    "constituency_id": 152,
    "district_id": 2,
    "state_id": 1
  },
  {
   "mandal_id": 598,
    "mandal_name": "Singanamala",
    "constituency_id": 152,
    "district_id": 2,
    "state_id": 1
  },
  {
   "mandal_id": 597,
    "mandal_name": "Putluru",
    "constituency_id": 152,
    "district_id": 2,
    "state_id": 1
  },
  {
   "mandal_id": 596,
    "mandal_name": "Narpala",
    "constituency_id": 152,
    "district_id": 2,
    "state_id": 1
  },
  {
   "mandal_id": 594,
    "mandal_name": "BukkaRayaSamudram",
    "constituency_id": 152,
    "district_id": 2,
    "state_id": 1
  },
  {
   "mandal_id": 600,
    "mandal_name": "AnantaPuram",
    "constituency_id": 153,
    "district_id": 2,
    "state_id": 1
  },
  {
   "mandal_id": 604,
    "mandal_name": "Kundurpi",
    "constituency_id": 154,
    "district_id": 2,
    "state_id": 1
  },
  {
   "mandal_id": 601,
    "mandal_name": "BarhamSamudram",
    "constituency_id": 154,
    "district_id": 2,
    "state_id": 1
  },
  {
   "mandal_id": 602,
    "mandal_name": "Kalyandurgam",
    "constituency_id": 154,
    "district_id": 2,
    "state_id": 1
  },
  {
   "mandal_id": 603,
    "mandal_name": "Kambadur",
    "constituency_id": 154,
    "district_id": 2,
    "state_id": 1
  },
  {
   "mandal_id": 605,
    "mandal_name": "Shetturu",
    "constituency_id": 154,
    "district_id": 2,
    "state_id": 1
  },
  {
   "mandal_id": 606,
    "mandal_name": "AnantaPuram",
    "constituency_id": 155,
    "district_id": 2,
    "state_id": 1
  },
  {
   "mandal_id": 611,
    "mandal_name": "Raptadu",
    "constituency_id": 155,
    "district_id": 2,
    "state_id": 1
  },
  {
   "mandal_id": 610,
    "mandal_name": "Ramagiri",
    "constituency_id": 155,
    "district_id": 2,
    "state_id": 1
  },
  {
   "mandal_id": 609,
    "mandal_name": "Kangana Palli",
    "constituency_id": 155,
    "district_id": 2,
    "state_id": 1
  },
  {
   "mandal_id": 608,
    "mandal_name": "Chennekothapalli",
    "constituency_id": 155,
    "district_id": 2,
    "state_id": 1
  },
  {
   "mandal_id": 607,
    "mandal_name": "Atmakuru",
    "constituency_id": 155,
    "district_id": 2,
    "state_id": 1
  },
  {
   "mandal_id": 615,
    "mandal_name": "Madkshira",
    "constituency_id": 156,
    "district_id": 2,
    "state_id": 1
  },
  {
   "mandal_id": 614,
    "mandal_name": "GudiBanda",
    "constituency_id": 156,
    "district_id": 2,
    "state_id": 1
  },
  {
   "mandal_id": 613,
    "mandal_name": "Amarapuram",
    "constituency_id": 156,
    "district_id": 2,
    "state_id": 1
  },
  {
   "mandal_id": 612,
    "mandal_name": "Agli",
    "constituency_id": 156,
    "district_id": 2,
    "state_id": 1
  },
  {
   "mandal_id": 616,
    "mandal_name": "Rolla",
    "constituency_id": 156,
    "district_id": 2,
    "state_id": 1
  },
  {
   "mandal_id": 619,
    "mandal_name": "Lepakshi",
    "constituency_id": 157,
    "district_id": 2,
    "state_id": 1
  },
  {
   "mandal_id": 618,
    "mandal_name": "Hindupuram",
    "constituency_id": 157,
    "district_id": 2,
    "state_id": 1
  },
  {
   "mandal_id": 617,
    "mandal_name": "Chilmathuru",
    "constituency_id": 157,
    "district_id": 2,
    "state_id": 1
  },
  {
   "mandal_id": 623,
    "mandal_name": "Roddam",
    "constituency_id": 158,
    "district_id": 2,
    "state_id": 1
  },
  {
   "mandal_id": 621,
    "mandal_name": "Parigi",
    "constituency_id": 158,
    "district_id": 2,
    "state_id": 1
  },
  {
   "mandal_id": 622,
    "mandal_name": "Penukonda",
    "constituency_id": 158,
    "district_id": 2,
    "state_id": 1
  },
  {
   "mandal_id": 620,
    "mandal_name": "Gorantla",
    "constituency_id": 158,
    "district_id": 2,
    "state_id": 1
  },
  {
   "mandal_id": 624,
    "mandal_name": "Somandepalli",
    "constituency_id": 158,
    "district_id": 2,
    "state_id": 1
  },
  {
   "mandal_id": 630,
    "mandal_name": "PuttaParti",
    "constituency_id": 159,
    "district_id": 2,
    "state_id": 1
  },
  {
   "mandal_id": 628,
    "mandal_name": "LanallaMada",
    "constituency_id": 159,
    "district_id": 2,
    "state_id": 1
  },
  {
   "mandal_id": 627,
    "mandal_name": "Kothacheruvu",
    "constituency_id": 159,
    "district_id": 2,
    "state_id": 1
  },
  {
   "mandal_id": 626,
    "mandal_name": "Bukkapatnam",
    "constituency_id": 159,
    "district_id": 2,
    "state_id": 1
  },
  {
   "mandal_id": 625,
    "mandal_name": "Amdguru",
    "constituency_id": 159,
    "district_id": 2,
    "state_id": 1
  },
  {
   "mandal_id": 629,
    "mandal_name": "Obuldewar Cheruvu",
    "constituency_id": 159,
    "district_id": 2,
    "state_id": 1
  },
  {
   "mandal_id": 634,
    "mandal_name": "Tadimarri",
    "constituency_id": 160,
    "district_id": 2,
    "state_id": 1
  },
  {
   "mandal_id": 633,
    "mandal_name": "Mudigubba",
    "constituency_id": 160,
    "district_id": 2,
    "state_id": 1
  },
  {
   "mandal_id": 632,
    "mandal_name": "Dharmavaram",
    "constituency_id": 160,
    "district_id": 2,
    "state_id": 1
  },
  {
   "mandal_id": 631,
    "mandal_name": "Bathalpalli",
    "constituency_id": 160,
    "district_id": 2,
    "state_id": 1
  },
  {
   "mandal_id": 640,
    "mandal_name": "Tanakallu",
    "constituency_id": 161,
    "district_id": 2,
    "state_id": 1
  },
  {
   "mandal_id": 639,
    "mandal_name": "Talupula",
    "constituency_id": 161,
    "district_id": 2,
    "state_id": 1
  },
  {
   "mandal_id": 638,
    "mandal_name": "Nallacheruvu",
    "constituency_id": 161,
    "district_id": 2,
    "state_id": 1
  },
  {
   "mandal_id": 637,
    "mandal_name": "N.P.Kunta",
    "constituency_id": 161,
    "district_id": 2,
    "state_id": 1
  },
  {
   "mandal_id": 636,
    "mandal_name": "Kadiri",
    "constituency_id": 161,
    "district_id": 2,
    "state_id": 1
  },
  {
   "mandal_id": 635,
    "mandal_name": "GandlaPenta",
    "constituency_id": 161,
    "district_id": 2,
    "state_id": 1
  },
  {
   "mandal_id": 643,
    "mandal_name": "MolakalaCheruvu",
    "constituency_id": 162,
    "district_id": 3,
    "state_id": 1
  },
  {
   "mandal_id": 641,
    "mandal_name": "B.Kothakota",
    "constituency_id": 162,
    "district_id": 3,
    "state_id": 1
  },
  {
   "mandal_id": 642,
    "mandal_name": "kurabalakota",
    "constituency_id": 162,
    "district_id": 3,
    "state_id": 1
  },
  {
   "mandal_id": 644,
    "mandal_name": "P.T.Yam.",
    "constituency_id": 162,
    "district_id": 3,
    "state_id": 1
  },
  {
   "mandal_id": 645,
    "mandal_name": "Peddamandyam",
    "constituency_id": 162,
    "district_id": 3,
    "state_id": 1
  },
  {
   "mandal_id": 646,
    "mandal_name": "Thamballapalle",
    "constituency_id": 162,
    "district_id": 3,
    "state_id": 1
  },
  {
   "mandal_id": 651,
    "mandal_name": "Pileru",
    "constituency_id": 163,
    "district_id": 3,
    "state_id": 1
  },
  {
   "mandal_id": 650,
    "mandal_name": "Kalkada",
    "constituency_id": 163,
    "district_id": 3,
    "state_id": 1
  },
  {
   "mandal_id": 647,
    "mandal_name": "Gurramkonda",
    "constituency_id": 163,
    "district_id": 3,
    "state_id": 1
  },
  {
   "mandal_id": 648,
    "mandal_name": "K.V.Palli",
    "constituency_id": 163,
    "district_id": 3,
    "state_id": 1
  },
  {
   "mandal_id": 649,
    "mandal_name": "Kalikiri",
    "constituency_id": 163,
    "district_id": 3,
    "state_id": 1
  },
  {
   "mandal_id": 652,
    "mandal_name": "VALMIKIPURAM",
    "constituency_id": 163,
    "district_id": 3,
    "state_id": 1
  },
  {
   "mandal_id": 655,
    "mandal_name": "RaamSamudram",
    "constituency_id": 164,
    "district_id": 3,
    "state_id": 1
  },
  {
   "mandal_id": 654,
    "mandal_name": "NimmanaPalle",
    "constituency_id": 164,
    "district_id": 3,
    "state_id": 1
  },
  {
   "mandal_id": 653,
    "mandal_name": "MadanaPalli",
    "constituency_id": 164,
    "district_id": 3,
    "state_id": 1
  },
  {
   "mandal_id": 658,
    "mandal_name": "Punganur",
    "constituency_id": 165,
    "district_id": 3,
    "state_id": 1
  },
  {
   "mandal_id": 659,
    "mandal_name": "Rompicherla",
    "constituency_id": 165,
    "district_id": 3,
    "state_id": 1
  },
  {
   "mandal_id": 661,
    "mandal_name": "Somal",
    "constituency_id": 165,
    "district_id": 3,
    "state_id": 1
  },
  {
   "mandal_id": 660,
    "mandal_name": "Sadum",
    "constituency_id": 165,
    "district_id": 3,
    "state_id": 1
  },
  {
   "mandal_id": 656,
    "mandal_name": "Chowdepalle",
    "constituency_id": 165,
    "district_id": 3,
    "state_id": 1
  },
  {
   "mandal_id": 657,
    "mandal_name": "PuliCherla",
    "constituency_id": 165,
    "district_id": 3,
    "state_id": 1
  },
  {
   "mandal_id": 668,
    "mandal_name": "Thirupathi(Rural)",
    "constituency_id": 166,
    "district_id": 3,
    "state_id": 1
  },
  {
   "mandal_id": 667,
    "mandal_name": "Thirupathi (Arban)",
    "constituency_id": 166,
    "district_id": 3,
    "state_id": 1
  },
  {
   "mandal_id": 666,
    "mandal_name": "Ramachandrapuram",
    "constituency_id": 166,
    "district_id": 3,
    "state_id": 1
  },
  {
   "mandal_id": 665,
    "mandal_name": "Pakala",
    "constituency_id": 166,
    "district_id": 3,
    "state_id": 1
  },
  {
   "mandal_id": 664,
    "mandal_name": "Erranaripalem",
    "constituency_id": 166,
    "district_id": 3,
    "state_id": 1
  },
  {
   "mandal_id": 663,
    "mandal_name": "Chandragiri",
    "constituency_id": 166,
    "district_id": 3,
    "state_id": 1
  },
  {
   "mandal_id": 662,
    "mandal_name": "C.G.Gallu",
    "constituency_id": 166,
    "district_id": 3,
    "state_id": 1
  },
  {
   "mandal_id": 669,
    "mandal_name": "Thirupathi (Urban)",
    "constituency_id": 167,
    "district_id": 3,
    "state_id": 1
  },
  {
   "mandal_id": 671,
    "mandal_name": "SRIKALAHASTHI",
    "constituency_id": 168,
    "district_id": 3,
    "state_id": 1
  },
  {
   "mandal_id": 670,
    "mandal_name": "Renigunta",
    "constituency_id": 168,
    "district_id": 3,
    "state_id": 1
  },
  {
   "mandal_id": 673,
    "mandal_name": "Yerpedu",
    "constituency_id": 168,
    "district_id": 3,
    "state_id": 1
  },
  {
   "mandal_id": 672,
    "mandal_name": "Tottambedu",
    "constituency_id": 168,
    "district_id": 3,
    "state_id": 1
  },
  {
   "mandal_id": 680,
    "mandal_name": "Vardaiahpalem",
    "constituency_id": 169,
    "district_id": 3,
    "state_id": 1
  },
  {
   "mandal_id": 675,
    "mandal_name": "K.V.B.Puram",
    "constituency_id": 169,
    "district_id": 3,
    "state_id": 1
  },
  {
   "mandal_id": 674,
    "mandal_name": "B.N.Kandriga",
    "constituency_id": 169,
    "district_id": 3,
    "state_id": 1
  },
  {
   "mandal_id": 676,
    "mandal_name": "Nagalapuram",
    "constituency_id": 169,
    "district_id": 3,
    "state_id": 1
  },
  {
   "mandal_id": 677,
    "mandal_name": "NaraayanaVanam",
    "constituency_id": 169,
    "district_id": 3,
    "state_id": 1
  },
  {
   "mandal_id": 678,
    "mandal_name": "Pitchatur",
    "constituency_id": 169,
    "district_id": 3,
    "state_id": 1
  },
  {
   "mandal_id": 679,
    "mandal_name": "Satyavedu",
    "constituency_id": 169,
    "district_id": 3,
    "state_id": 1
  },
  {
   "mandal_id": 684,
    "mandal_name": "Vadmalpet",
    "constituency_id": 170,
    "district_id": 3,
    "state_id": 1
  },
  {
   "mandal_id": 681,
    "mandal_name": "NAGARI",
    "constituency_id": 170,
    "district_id": 3,
    "state_id": 1
  },
  {
   "mandal_id": 683,
    "mandal_name": "PUTTUR",
    "constituency_id": 170,
    "district_id": 3,
    "state_id": 1
  },
  {
   "mandal_id": 685,
    "mandal_name": "VijayaPuram",
    "constituency_id": 170,
    "district_id": 3,
    "state_id": 1
  },
  {
   "mandal_id": 682,
    "mandal_name": "Nindra",
    "constituency_id": 170,
    "district_id": 3,
    "state_id": 1
  },
  {
   "mandal_id": 689,
    "mandal_name": "Penumur",
    "constituency_id": 171,
    "district_id": 3,
    "state_id": 1
  },
  {
   "mandal_id": 687,
    "mandal_name": "Karvetingaram",
    "constituency_id": 171,
    "district_id": 3,
    "state_id": 1
  },
  {
   "mandal_id": 688,
    "mandal_name": "Palasamudram",
    "constituency_id": 171,
    "district_id": 3,
    "state_id": 1
  },
  {
   "mandal_id": 691,
    "mandal_name": "Vedurukuppam",
    "constituency_id": 171,
    "district_id": 3,
    "state_id": 1
  },
  {
   "mandal_id": 690,
    "mandal_name": "S.R.Puram",
    "constituency_id": 171,
    "district_id": 3,
    "state_id": 1
  },
  {
   "mandal_id": 686,
    "mandal_name": "G.D.Nellore",
    "constituency_id": 171,
    "district_id": 3,
    "state_id": 1
  },
  {
   "mandal_id": 692,
    "mandal_name": "Chittoor",
    "constituency_id": 172,
    "district_id": 3,
    "state_id": 1
  },
  {
   "mandal_id": 693,
    "mandal_name": "Gudipala",
    "constituency_id": 172,
    "district_id": 3,
    "state_id": 1
  },
  {
   "mandal_id": 696,
    "mandal_name": "Puthalapattu",
    "constituency_id": 173,
    "district_id": 3,
    "state_id": 1
  },
  {
   "mandal_id": 694,
    "mandal_name": "BangaruPalem",
    "constituency_id": 173,
    "district_id": 3,
    "state_id": 1
  },
  {
   "mandal_id": 697,
    "mandal_name": "Thavanampalli",
    "constituency_id": 173,
    "district_id": 3,
    "state_id": 1
  },
  {
   "mandal_id": 698,
    "mandal_name": "Yadmri",
    "constituency_id": 173,
    "district_id": 3,
    "state_id": 1
  },
  {
   "mandal_id": 695,
    "mandal_name": "Irala",
    "constituency_id": 173,
    "district_id": 3,
    "state_id": 1
  },
  {
   "mandal_id": 703,
    "mandal_name": "V.Coat",
    "constituency_id": 174,
    "district_id": 3,
    "state_id": 1
  },
  {
   "mandal_id": 699,
    "mandal_name": "Baireddipalle",
    "constituency_id": 174,
    "district_id": 3,
    "state_id": 1
  },
  {
   "mandal_id": 702,
    "mandal_name": "PEDDA PANJANI",
    "constituency_id": 174,
    "district_id": 3,
    "state_id": 1
  },
  {
   "mandal_id": 701,
    "mandal_name": "Palmneru",
    "constituency_id": 174,
    "district_id": 3,
    "state_id": 1
  },
  {
   "mandal_id": 700,
    "mandal_name": "Gangavaram",
    "constituency_id": 174,
    "district_id": 3,
    "state_id": 1
  },
  {
   "mandal_id": 704,
    "mandal_name": "Gudupalle",
    "constituency_id": 175,
    "district_id": 3,
    "state_id": 1
  },
  {
   "mandal_id": 705,
    "mandal_name": "Kuppam",
    "constituency_id": 175,
    "district_id": 3,
    "state_id": 1
  },
  {
   "mandal_id": 707,
    "mandal_name": "Santhipuram",
    "constituency_id": 175,
    "district_id": 3,
    "state_id": 1
  },
  {
   "mandal_id": 706,
    "mandal_name": "Ramakuppam",
    "constituency_id": 175,
    "district_id": 3,
    "state_id": 1
  }
]